[{"id":512,"vehicle_id":"NGOC108892","customer_id":"CUST248","preferences":"app only"},
{"id":21,"vehicle_id":"YUWN605312","customer_id":"CUST186","preferences":"emails"},
{"id":688,"vehicle_id":"QMLP151034","customer_id":"CUST124","preferences":"text messages"},
{"id":54,"vehicle_id":"ZWRE680323","customer_id":"CUST127","preferences":"in-car notifications"},
{"id":727,"vehicle_id":"DUAA885128","customer_id":"CUST116","preferences":"in-car notifications"},
{"id":642,"vehicle_id":"KTNP605673","customer_id":"CUST080","preferences":"text messages"},
{"id":411,"vehicle_id":"YIBM747023","customer_id":"CUST195","preferences":"app only"},
{"id":632,"vehicle_id":"UJIU255305","customer_id":"CUST065","preferences":"emails"},
{"id":387,"vehicle_id":"HHYP600020","customer_id":"CUST013","preferences":"text messages"},
{"id":268,"vehicle_id":"UNDH967970","customer_id":"CUST031","preferences":"app only"},
{"id":503,"vehicle_id":"QBCV427095","customer_id":"CUST212","preferences":"emails"},
{"id":710,"vehicle_id":"IXSZ251552","customer_id":"CUST212","preferences":"in-car notifications"},
{"id":437,"vehicle_id":"XEDX549106","customer_id":"CUST237","preferences":"in-car notifications"},
{"id":375,"vehicle_id":"EPYT375602","customer_id":"CUST164","preferences":"in-car notifications"},
{"id":534,"vehicle_id":"EQAF801426","customer_id":"CUST075","preferences":"text messages"},
{"id":607,"vehicle_id":"DMVG107847","customer_id":"CUST240","preferences":"emails"},
{"id":58,"vehicle_id":"THRT045555","customer_id":"CUST088","preferences":"text messages"},
{"id":554,"vehicle_id":"WXIH293456","customer_id":"CUST080","preferences":"text messages"},
{"id":706,"vehicle_id":"OOMQ845854","customer_id":"CUST235","preferences":"app only"},
{"id":673,"vehicle_id":"MIQL332927","customer_id":"CUST247","preferences":"in-car notifications"},
{"id":891,"vehicle_id":"HCLL587816","customer_id":"CUST241","preferences":"in-car notifications"},
{"id":242,"vehicle_id":"FZXX530813","customer_id":"CUST020","preferences":"text messages"},
{"id":138,"vehicle_id":"ETDL451939","customer_id":"CUST023","preferences":"in-car notifications"},
{"id":989,"vehicle_id":"EFJZ128480","customer_id":"CUST049","preferences":"app only"},
{"id":783,"vehicle_id":"QMLP151034","customer_id":"CUST046","preferences":"app only"},
{"id":801,"vehicle_id":"YXKY858107","customer_id":"CUST143","preferences":"text messages"},
{"id":983,"vehicle_id":"LHUL878583","customer_id":"CUST200","preferences":"text messages"},
{"id":895,"vehicle_id":"JBZT009259","customer_id":"CUST192","preferences":"app only"},
{"id":170,"vehicle_id":"LYTP696843","customer_id":"CUST050","preferences":"app only"},
{"id":51,"vehicle_id":"YIBM747023","customer_id":"CUST092","preferences":"in-car notifications"},
{"id":819,"vehicle_id":"QQOG079381","customer_id":"CUST197","preferences":"in-car notifications"},
{"id":741,"vehicle_id":"PTAQ712838","customer_id":"CUST163","preferences":"app only"},
{"id":890,"vehicle_id":"EPFH977482","customer_id":"CUST223","preferences":"emails"},
{"id":568,"vehicle_id":"FFYD891939","customer_id":"CUST051","preferences":"emails"},
{"id":591,"vehicle_id":"XEDX549106","customer_id":"CUST225","preferences":"app only"},
{"id":200,"vehicle_id":"GOVH154845","customer_id":"CUST146","preferences":"emails"},
{"id":787,"vehicle_id":"VEQX686395","customer_id":"CUST043","preferences":"emails"},
{"id":489,"vehicle_id":"XKRG736560","customer_id":"CUST230","preferences":"app only"},
{"id":612,"vehicle_id":"SXSM127789","customer_id":"CUST198","preferences":"app only"},
{"id":967,"vehicle_id":"TXGX760486","customer_id":"CUST166","preferences":"emails"},
{"id":657,"vehicle_id":"SFDT232524","customer_id":"CUST167","preferences":"emails"},
{"id":940,"vehicle_id":"SXSM127789","customer_id":"CUST228","preferences":"emails"},
{"id":193,"vehicle_id":"HACR870995","customer_id":"CUST159","preferences":"in-car notifications"},
{"id":802,"vehicle_id":"XKOO997321","customer_id":"CUST222","preferences":"in-car notifications"},
{"id":668,"vehicle_id":"LHJH718291","customer_id":"CUST245","preferences":"emails"},
{"id":411,"vehicle_id":"EDZU771030","customer_id":"CUST075","preferences":"in-car notifications"},
{"id":890,"vehicle_id":"PDGZ847950","customer_id":"CUST129","preferences":"text messages"},
{"id":582,"vehicle_id":"WGIK872745","customer_id":"CUST084","preferences":"in-car notifications"},
{"id":304,"vehicle_id":"JIYJ665103","customer_id":"CUST005","preferences":"in-car notifications"},
{"id":886,"vehicle_id":"SXSM127789","customer_id":"CUST091","preferences":"text messages"},
{"id":377,"vehicle_id":"YLFP374329","customer_id":"CUST085","preferences":"emails"},
{"id":510,"vehicle_id":"JFLC136406","customer_id":"CUST154","preferences":"text messages"},
{"id":864,"vehicle_id":"UQUJ370335","customer_id":"CUST216","preferences":"emails"},
{"id":142,"vehicle_id":"ECVT765820","customer_id":"CUST093","preferences":"text messages"},
{"id":906,"vehicle_id":"QBCV427095","customer_id":"CUST058","preferences":"in-car notifications"},
{"id":248,"vehicle_id":"BHBQ281156","customer_id":"CUST243","preferences":"app only"},
{"id":722,"vehicle_id":"LYTP696843","customer_id":"CUST227","preferences":"app only"},
{"id":72,"vehicle_id":"OKAT467163","customer_id":"CUST037","preferences":"in-car notifications"},
{"id":106,"vehicle_id":"ABVS001390","customer_id":"CUST151","preferences":"emails"},
{"id":664,"vehicle_id":"LYTP696843","customer_id":"CUST194","preferences":"app only"},
{"id":243,"vehicle_id":"FLLZ547015","customer_id":"CUST222","preferences":"text messages"},
{"id":871,"vehicle_id":"JSBP365638","customer_id":"CUST250","preferences":"in-car notifications"},
{"id":735,"vehicle_id":"CLNF030292","customer_id":"CUST121","preferences":"in-car notifications"},
{"id":302,"vehicle_id":"OWZQ577893","customer_id":"CUST169","preferences":"app only"},
{"id":937,"vehicle_id":"DSGJ390230","customer_id":"CUST247","preferences":"in-car notifications"},
{"id":638,"vehicle_id":"YUWN605312","customer_id":"CUST141","preferences":"text messages"},
{"id":579,"vehicle_id":"CTYE479776","customer_id":"CUST226","preferences":"in-car notifications"},
{"id":319,"vehicle_id":"ERET366123","customer_id":"CUST230","preferences":"text messages"},
{"id":482,"vehicle_id":"TYBZ234758","customer_id":"CUST184","preferences":"app only"},
{"id":926,"vehicle_id":"KVXI357012","customer_id":"CUST169","preferences":"emails"},
{"id":464,"vehicle_id":"UNDH967970","customer_id":"CUST243","preferences":"app only"},
{"id":423,"vehicle_id":"KCKJ279709","customer_id":"CUST067","preferences":"emails"},
{"id":189,"vehicle_id":"ERET366123","customer_id":"CUST020","preferences":"in-car notifications"},
{"id":679,"vehicle_id":"LCOK363031","customer_id":"CUST129","preferences":"text messages"},
{"id":239,"vehicle_id":"SZPY822491","customer_id":"CUST053","preferences":"app only"},
{"id":29,"vehicle_id":"QHUS363329","customer_id":"CUST129","preferences":"emails"},
{"id":377,"vehicle_id":"OMMO459645","customer_id":"CUST146","preferences":"emails"},
{"id":630,"vehicle_id":"QBCV427095","customer_id":"CUST027","preferences":"app only"},
{"id":278,"vehicle_id":"YUWN605312","customer_id":"CUST019","preferences":"emails"},
{"id":472,"vehicle_id":"CDWN346029","customer_id":"CUST175","preferences":"in-car notifications"},
{"id":719,"vehicle_id":"ABVS001390","customer_id":"CUST088","preferences":"emails"},
{"id":583,"vehicle_id":"OOMQ845854","customer_id":"CUST129","preferences":"emails"},
{"id":213,"vehicle_id":"VWDL207914","customer_id":"CUST010","preferences":"emails"},
{"id":50,"vehicle_id":"KPEQ053612","customer_id":"CUST191","preferences":"app only"},
{"id":80,"vehicle_id":"PDGZ847950","customer_id":"CUST137","preferences":"emails"},
{"id":710,"vehicle_id":"HHYD160556","customer_id":"CUST122","preferences":"app only"},
{"id":406,"vehicle_id":"VZGJ374364","customer_id":"CUST017","preferences":"in-car notifications"},
{"id":454,"vehicle_id":"SBSJ664663","customer_id":"CUST093","preferences":"emails"},
{"id":772,"vehicle_id":"YLFP374329","customer_id":"CUST197","preferences":"app only"},
{"id":853,"vehicle_id":"MIQL332927","customer_id":"CUST214","preferences":"text messages"},
{"id":427,"vehicle_id":"YZKE917995","customer_id":"CUST086","preferences":"emails"},
{"id":344,"vehicle_id":"YZKE917995","customer_id":"CUST114","preferences":"emails"},
{"id":833,"vehicle_id":"XKOO997321","customer_id":"CUST111","preferences":"app only"},
{"id":493,"vehicle_id":"ZVDA488593","customer_id":"CUST069","preferences":"text messages"},
{"id":189,"vehicle_id":"JFLC136406","customer_id":"CUST223","preferences":"app only"},
{"id":550,"vehicle_id":"ERET366123","customer_id":"CUST124","preferences":"app only"},
{"id":348,"vehicle_id":"LQPV245421","customer_id":"CUST201","preferences":"in-car notifications"},
{"id":213,"vehicle_id":"EOEO599807","customer_id":"CUST027","preferences":"app only"},
{"id":695,"vehicle_id":"KTNP605673","customer_id":"CUST242","preferences":"in-car notifications"},
{"id":822,"vehicle_id":"LYTP696843","customer_id":"CUST091","preferences":"emails"},
{"id":277,"vehicle_id":"CVTT448741","customer_id":"CUST165","preferences":"app only"},
{"id":902,"vehicle_id":"PZOK789029","customer_id":"CUST198","preferences":"text messages"},
{"id":171,"vehicle_id":"SFDT232524","customer_id":"CUST072","preferences":"in-car notifications"},
{"id":25,"vehicle_id":"VZGJ374364","customer_id":"CUST223","preferences":"in-car notifications"},
{"id":888,"vehicle_id":"SMLE253042","customer_id":"CUST202","preferences":"text messages"},
{"id":371,"vehicle_id":"SSBD208821","customer_id":"CUST094","preferences":"app only"},
{"id":325,"vehicle_id":"ROEE296826","customer_id":"CUST109","preferences":"emails"},
{"id":243,"vehicle_id":"LBVR123700","customer_id":"CUST041","preferences":"in-car notifications"},
{"id":841,"vehicle_id":"QQOG079381","customer_id":"CUST196","preferences":"text messages"},
{"id":43,"vehicle_id":"ZDDD988541","customer_id":"CUST155","preferences":"text messages"},
{"id":449,"vehicle_id":"WXIH293456","customer_id":"CUST153","preferences":"text messages"},
{"id":248,"vehicle_id":"NUBA595186","customer_id":"CUST162","preferences":"text messages"},
{"id":351,"vehicle_id":"ABVS001390","customer_id":"CUST016","preferences":"emails"},
{"id":122,"vehicle_id":"FUXL536078","customer_id":"CUST143","preferences":"text messages"},
{"id":93,"vehicle_id":"ASFF993989","customer_id":"CUST169","preferences":"text messages"},
{"id":918,"vehicle_id":"JIYJ665103","customer_id":"CUST149","preferences":"app only"},
{"id":266,"vehicle_id":"GGTJ657261","customer_id":"CUST162","preferences":"text messages"},
{"id":199,"vehicle_id":"LDHS356371","customer_id":"CUST236","preferences":"app only"},
{"id":335,"vehicle_id":"LYTP696843","customer_id":"CUST018","preferences":"text messages"},
{"id":667,"vehicle_id":"OHOE771672","customer_id":"CUST067","preferences":"text messages"},
{"id":726,"vehicle_id":"UZXG353501","customer_id":"CUST218","preferences":"emails"},
{"id":961,"vehicle_id":"ANSL287702","customer_id":"CUST069","preferences":"text messages"},
{"id":932,"vehicle_id":"EFJZ128480","customer_id":"CUST037","preferences":"text messages"},
{"id":637,"vehicle_id":"DUAA885128","customer_id":"CUST022","preferences":"app only"},
{"id":679,"vehicle_id":"UCXU060664","customer_id":"CUST152","preferences":"app only"},
{"id":565,"vehicle_id":"TYBZ234758","customer_id":"CUST207","preferences":"app only"},
{"id":314,"vehicle_id":"YZKE917995","customer_id":"CUST191","preferences":"text messages"},
{"id":2,"vehicle_id":"QOSJ317970","customer_id":"CUST056","preferences":"app only"},
{"id":447,"vehicle_id":"CTYE479776","customer_id":"CUST237","preferences":"in-car notifications"},
{"id":604,"vehicle_id":"PZOK789029","customer_id":"CUST079","preferences":"in-car notifications"},
{"id":622,"vehicle_id":"ALOG177182","customer_id":"CUST007","preferences":"app only"},
{"id":483,"vehicle_id":"BEPU247876","customer_id":"CUST153","preferences":"in-car notifications"},
{"id":836,"vehicle_id":"ZTVZ873138","customer_id":"CUST009","preferences":"text messages"},
{"id":499,"vehicle_id":"FESA411559","customer_id":"CUST144","preferences":"text messages"},
{"id":581,"vehicle_id":"YLFP374329","customer_id":"CUST057","preferences":"in-car notifications"},
{"id":717,"vehicle_id":"PXZN835292","customer_id":"CUST199","preferences":"text messages"},
{"id":825,"vehicle_id":"JIYJ665103","customer_id":"CUST231","preferences":"in-car notifications"},
{"id":626,"vehicle_id":"CTYE479776","customer_id":"CUST188","preferences":"text messages"},
{"id":929,"vehicle_id":"HHYP600020","customer_id":"CUST039","preferences":"app only"},
{"id":74,"vehicle_id":"PXZN835292","customer_id":"CUST152","preferences":"in-car notifications"},
{"id":243,"vehicle_id":"CROI311313","customer_id":"CUST102","preferences":"in-car notifications"},
{"id":751,"vehicle_id":"JHUP210614","customer_id":"CUST238","preferences":"app only"},
{"id":987,"vehicle_id":"NFLD996630","customer_id":"CUST064","preferences":"text messages"},
{"id":94,"vehicle_id":"CLNF030292","customer_id":"CUST207","preferences":"in-car notifications"},
{"id":661,"vehicle_id":"LUHY699719","customer_id":"CUST160","preferences":"app only"},
{"id":241,"vehicle_id":"PXZN835292","customer_id":"CUST218","preferences":"emails"},
{"id":696,"vehicle_id":"EIMR460228","customer_id":"CUST033","preferences":"app only"},
{"id":373,"vehicle_id":"HSXN669924","customer_id":"CUST241","preferences":"in-car notifications"},
{"id":681,"vehicle_id":"YZKE917995","customer_id":"CUST151","preferences":"in-car notifications"},
{"id":241,"vehicle_id":"QBCV427095","customer_id":"CUST056","preferences":"app only"},
{"id":632,"vehicle_id":"GOVH154845","customer_id":"CUST135","preferences":"emails"},
{"id":168,"vehicle_id":"WGIK872745","customer_id":"CUST125","preferences":"text messages"},
{"id":403,"vehicle_id":"KCKJ279709","customer_id":"CUST040","preferences":"text messages"},
{"id":162,"vehicle_id":"OJHB317458","customer_id":"CUST046","preferences":"text messages"},
{"id":856,"vehicle_id":"VMNV460284","customer_id":"CUST145","preferences":"text messages"},
{"id":545,"vehicle_id":"KZVX258844","customer_id":"CUST011","preferences":"emails"},
{"id":894,"vehicle_id":"LHJH718291","customer_id":"CUST091","preferences":"app only"},
{"id":804,"vehicle_id":"PZJH049662","customer_id":"CUST038","preferences":"text messages"},
{"id":875,"vehicle_id":"CDWN346029","customer_id":"CUST113","preferences":"app only"},
{"id":35,"vehicle_id":"GPKV100314","customer_id":"CUST016","preferences":"app only"},
{"id":680,"vehicle_id":"ELOA954475","customer_id":"CUST011","preferences":"emails"},
{"id":272,"vehicle_id":"GMCV435736","customer_id":"CUST158","preferences":"app only"},
{"id":72,"vehicle_id":"RRBR022953","customer_id":"CUST152","preferences":"emails"},
{"id":455,"vehicle_id":"ZVDA488593","customer_id":"CUST248","preferences":"in-car notifications"},
{"id":137,"vehicle_id":"TYBZ234758","customer_id":"CUST132","preferences":"app only"},
{"id":631,"vehicle_id":"WGIK872745","customer_id":"CUST020","preferences":"text messages"},
{"id":557,"vehicle_id":"PMGI484502","customer_id":"CUST185","preferences":"text messages"},
{"id":843,"vehicle_id":"KZVX258844","customer_id":"CUST081","preferences":"in-car notifications"},
{"id":717,"vehicle_id":"OMMO459645","customer_id":"CUST089","preferences":"in-car notifications"},
{"id":810,"vehicle_id":"GCLA164919","customer_id":"CUST183","preferences":"text messages"},
{"id":419,"vehicle_id":"OOUD610694","customer_id":"CUST137","preferences":"text messages"},
{"id":198,"vehicle_id":"PZJH049662","customer_id":"CUST152","preferences":"emails"},
{"id":141,"vehicle_id":"JFLC136406","customer_id":"CUST060","preferences":"in-car notifications"},
{"id":856,"vehicle_id":"QESH517178","customer_id":"CUST063","preferences":"emails"},
{"id":889,"vehicle_id":"QBCV427095","customer_id":"CUST024","preferences":"text messages"},
{"id":951,"vehicle_id":"VYAN637046","customer_id":"CUST169","preferences":"app only"},
{"id":462,"vehicle_id":"GPKV100314","customer_id":"CUST111","preferences":"in-car notifications"},
{"id":912,"vehicle_id":"XKRG736560","customer_id":"CUST176","preferences":"emails"},
{"id":491,"vehicle_id":"HACR870995","customer_id":"CUST100","preferences":"emails"},
{"id":493,"vehicle_id":"AZLS416090","customer_id":"CUST008","preferences":"text messages"},
{"id":614,"vehicle_id":"PZJH049662","customer_id":"CUST203","preferences":"app only"},
{"id":569,"vehicle_id":"EHZH837377","customer_id":"CUST132","preferences":"text messages"},
{"id":150,"vehicle_id":"LMBH041258","customer_id":"CUST049","preferences":"app only"},
{"id":497,"vehicle_id":"JSHA235863","customer_id":"CUST021","preferences":"emails"},
{"id":330,"vehicle_id":"EDBY480218","customer_id":"CUST186","preferences":"emails"},
{"id":736,"vehicle_id":"CLNF030292","customer_id":"CUST249","preferences":"app only"},
{"id":621,"vehicle_id":"UNWY775603","customer_id":"CUST041","preferences":"text messages"},
{"id":460,"vehicle_id":"VYAN637046","customer_id":"CUST028","preferences":"emails"},
{"id":152,"vehicle_id":"KTXZ723994","customer_id":"CUST097","preferences":"text messages"},
{"id":709,"vehicle_id":"SSBD208821","customer_id":"CUST084","preferences":"emails"},
{"id":56,"vehicle_id":"LBKH502213","customer_id":"CUST202","preferences":"in-car notifications"},
{"id":376,"vehicle_id":"ETDL451939","customer_id":"CUST019","preferences":"app only"},
{"id":923,"vehicle_id":"GMCV435736","customer_id":"CUST071","preferences":"emails"},
{"id":391,"vehicle_id":"UTCO400982","customer_id":"CUST039","preferences":"in-car notifications"},
{"id":818,"vehicle_id":"LRHW561263","customer_id":"CUST180","preferences":"text messages"},
{"id":232,"vehicle_id":"TFCF138822","customer_id":"CUST025","preferences":"in-car notifications"},
{"id":455,"vehicle_id":"YXKY858107","customer_id":"CUST170","preferences":"in-car notifications"},
{"id":697,"vehicle_id":"XKRG736560","customer_id":"CUST029","preferences":"emails"},
{"id":731,"vehicle_id":"ECVT765820","customer_id":"CUST125","preferences":"emails"},
{"id":722,"vehicle_id":"JSHA235863","customer_id":"CUST137","preferences":"text messages"},
{"id":788,"vehicle_id":"DKDF220605","customer_id":"CUST198","preferences":"text messages"},
{"id":77,"vehicle_id":"YLFP374329","customer_id":"CUST210","preferences":"emails"},
{"id":674,"vehicle_id":"WIBI873437","customer_id":"CUST153","preferences":"app only"},
{"id":994,"vehicle_id":"SDZK790346","customer_id":"CUST018","preferences":"in-car notifications"},
{"id":509,"vehicle_id":"PZJH049662","customer_id":"CUST187","preferences":"emails"},
{"id":635,"vehicle_id":"LHJH718291","customer_id":"CUST199","preferences":"app only"},
{"id":701,"vehicle_id":"LBVR123700","customer_id":"CUST215","preferences":"app only"},
{"id":230,"vehicle_id":"VLHO848194","customer_id":"CUST136","preferences":"text messages"},
{"id":64,"vehicle_id":"CLNF030292","customer_id":"CUST024","preferences":"in-car notifications"},
{"id":249,"vehicle_id":"SJYG082115","customer_id":"CUST209","preferences":"emails"},
{"id":434,"vehicle_id":"WWBQ858951","customer_id":"CUST096","preferences":"emails"},
{"id":131,"vehicle_id":"KZVX258844","customer_id":"CUST020","preferences":"app only"},
{"id":203,"vehicle_id":"FUXL536078","customer_id":"CUST210","preferences":"app only"},
{"id":516,"vehicle_id":"EPFH977482","customer_id":"CUST237","preferences":"in-car notifications"},
{"id":789,"vehicle_id":"ORZF225010","customer_id":"CUST241","preferences":"text messages"},
{"id":67,"vehicle_id":"OOMQ845854","customer_id":"CUST037","preferences":"emails"},
{"id":272,"vehicle_id":"GPKV100314","customer_id":"CUST052","preferences":"emails"},
{"id":591,"vehicle_id":"ALOG177182","customer_id":"CUST095","preferences":"app only"},
{"id":866,"vehicle_id":"TXGX760486","customer_id":"CUST129","preferences":"text messages"},
{"id":812,"vehicle_id":"YKGF842918","customer_id":"CUST183","preferences":"emails"},
{"id":350,"vehicle_id":"AZLS416090","customer_id":"CUST109","preferences":"app only"},
{"id":437,"vehicle_id":"UQYP245444","customer_id":"CUST040","preferences":"emails"},
{"id":552,"vehicle_id":"EOEO599807","customer_id":"CUST127","preferences":"app only"},
{"id":663,"vehicle_id":"LRHW561263","customer_id":"CUST121","preferences":"emails"},
{"id":350,"vehicle_id":"BEPU247876","customer_id":"CUST202","preferences":"app only"},
{"id":440,"vehicle_id":"GOVH154845","customer_id":"CUST071","preferences":"emails"},
{"id":698,"vehicle_id":"LHJH718291","customer_id":"CUST098","preferences":"app only"},
{"id":779,"vehicle_id":"DSGJ390230","customer_id":"CUST055","preferences":"text messages"},
{"id":766,"vehicle_id":"MSUR247743","customer_id":"CUST129","preferences":"app only"},
{"id":874,"vehicle_id":"YKGF842918","customer_id":"CUST206","preferences":"text messages"},
{"id":304,"vehicle_id":"MIQL332927","customer_id":"CUST025","preferences":"text messages"},
{"id":327,"vehicle_id":"QESH517178","customer_id":"CUST039","preferences":"emails"},
{"id":697,"vehicle_id":"VYAN637046","customer_id":"CUST154","preferences":"emails"},
{"id":547,"vehicle_id":"LULT224379","customer_id":"CUST001","preferences":"text messages"},
{"id":5,"vehicle_id":"NFLD996630","customer_id":"CUST075","preferences":"app only"},
{"id":310,"vehicle_id":"UWXQ705037","customer_id":"CUST099","preferences":"in-car notifications"},
{"id":275,"vehicle_id":"CYXV105973","customer_id":"CUST101","preferences":"emails"},
{"id":677,"vehicle_id":"HACR870995","customer_id":"CUST154","preferences":"text messages"},
{"id":88,"vehicle_id":"ROEE296826","customer_id":"CUST052","preferences":"emails"},
{"id":231,"vehicle_id":"MSUR247743","customer_id":"CUST173","preferences":"in-car notifications"},
{"id":645,"vehicle_id":"LYMV074980","customer_id":"CUST064","preferences":"emails"},
{"id":667,"vehicle_id":"DUAA885128","customer_id":"CUST043","preferences":"app only"},
{"id":621,"vehicle_id":"UNDH967970","customer_id":"CUST195","preferences":"app only"},
{"id":244,"vehicle_id":"BCAP852317","customer_id":"CUST065","preferences":"app only"},
{"id":751,"vehicle_id":"EOLR832945","customer_id":"CUST250","preferences":"emails"},
{"id":472,"vehicle_id":"ALOG177182","customer_id":"CUST097","preferences":"emails"},
{"id":206,"vehicle_id":"UNDH967970","customer_id":"CUST223","preferences":"emails"},
{"id":578,"vehicle_id":"JBZT009259","customer_id":"CUST185","preferences":"emails"},
{"id":680,"vehicle_id":"SBSJ664663","customer_id":"CUST136","preferences":"in-car notifications"},
{"id":982,"vehicle_id":"UNDH967970","customer_id":"CUST096","preferences":"text messages"},
{"id":972,"vehicle_id":"WIOO550507","customer_id":"CUST046","preferences":"emails"},
{"id":166,"vehicle_id":"OJHB317458","customer_id":"CUST132","preferences":"emails"},
{"id":815,"vehicle_id":"XXII400396","customer_id":"CUST224","preferences":"app only"},
{"id":79,"vehicle_id":"DKDF220605","customer_id":"CUST110","preferences":"in-car notifications"},
{"id":671,"vehicle_id":"CVTT448741","customer_id":"CUST153","preferences":"text messages"},
{"id":994,"vehicle_id":"FUXL536078","customer_id":"CUST239","preferences":"in-car notifications"},
{"id":408,"vehicle_id":"ZWRE680323","customer_id":"CUST104","preferences":"in-car notifications"},
{"id":189,"vehicle_id":"GJMB702300","customer_id":"CUST241","preferences":"app only"},
{"id":806,"vehicle_id":"PXZN835292","customer_id":"CUST222","preferences":"in-car notifications"},
{"id":676,"vehicle_id":"LCOK363031","customer_id":"CUST234","preferences":"text messages"},
{"id":286,"vehicle_id":"QBCV427095","customer_id":"CUST237","preferences":"in-car notifications"},
{"id":268,"vehicle_id":"XXII400396","customer_id":"CUST076","preferences":"app only"},
{"id":378,"vehicle_id":"ALOG177182","customer_id":"CUST225","preferences":"in-car notifications"},
{"id":652,"vehicle_id":"FXCQ127759","customer_id":"CUST101","preferences":"emails"},
{"id":483,"vehicle_id":"LWGP692170","customer_id":"CUST065","preferences":"app only"},
{"id":301,"vehicle_id":"UJIU255305","customer_id":"CUST127","preferences":"text messages"},
{"id":391,"vehicle_id":"ZTVZ873138","customer_id":"CUST070","preferences":"text messages"},
{"id":155,"vehicle_id":"XKOO997321","customer_id":"CUST086","preferences":"emails"},
{"id":997,"vehicle_id":"GMCV435736","customer_id":"CUST070","preferences":"emails"},
{"id":715,"vehicle_id":"BVOC660550","customer_id":"CUST120","preferences":"app only"},
{"id":916,"vehicle_id":"WVDR491014","customer_id":"CUST076","preferences":"text messages"},
{"id":74,"vehicle_id":"AZLS416090","customer_id":"CUST189","preferences":"in-car notifications"},
{"id":828,"vehicle_id":"PGNK407817","customer_id":"CUST039","preferences":"app only"},
{"id":124,"vehicle_id":"APUG266973","customer_id":"CUST191","preferences":"emails"},
{"id":983,"vehicle_id":"HCOJ997886","customer_id":"CUST217","preferences":"emails"},
{"id":297,"vehicle_id":"UWXQ705037","customer_id":"CUST084","preferences":"text messages"},
{"id":818,"vehicle_id":"QQOG079381","customer_id":"CUST165","preferences":"app only"},
{"id":600,"vehicle_id":"UQYP245444","customer_id":"CUST088","preferences":"app only"},
{"id":914,"vehicle_id":"DSGJ390230","customer_id":"CUST047","preferences":"text messages"},
{"id":194,"vehicle_id":"LBKH502213","customer_id":"CUST213","preferences":"emails"},
{"id":985,"vehicle_id":"JUWP345196","customer_id":"CUST230","preferences":"text messages"},
{"id":520,"vehicle_id":"KTNP605673","customer_id":"CUST244","preferences":"emails"},
{"id":425,"vehicle_id":"CROI311313","customer_id":"CUST238","preferences":"text messages"},
{"id":66,"vehicle_id":"ABVS001390","customer_id":"CUST226","preferences":"app only"},
{"id":439,"vehicle_id":"HBOT258804","customer_id":"CUST143","preferences":"emails"},
{"id":518,"vehicle_id":"YZKE917995","customer_id":"CUST173","preferences":"app only"},
{"id":755,"vehicle_id":"THRT045555","customer_id":"CUST243","preferences":"emails"},
{"id":897,"vehicle_id":"JRPW790854","customer_id":"CUST237","preferences":"emails"},
{"id":19,"vehicle_id":"ASFF993989","customer_id":"CUST050","preferences":"app only"},
{"id":796,"vehicle_id":"IXSZ251552","customer_id":"CUST222","preferences":"app only"},
{"id":681,"vehicle_id":"KCKJ279709","customer_id":"CUST069","preferences":"in-car notifications"},
{"id":459,"vehicle_id":"EIMR460228","customer_id":"CUST105","preferences":"text messages"},
{"id":552,"vehicle_id":"PZJH049662","customer_id":"CUST094","preferences":"emails"},
{"id":764,"vehicle_id":"WIBI873437","customer_id":"CUST119","preferences":"in-car notifications"},
{"id":427,"vehicle_id":"OWZQ577893","customer_id":"CUST118","preferences":"emails"},
{"id":914,"vehicle_id":"YLFP374329","customer_id":"CUST104","preferences":"in-car notifications"},
{"id":661,"vehicle_id":"APUG266973","customer_id":"CUST171","preferences":"emails"},
{"id":767,"vehicle_id":"CTYE479776","customer_id":"CUST031","preferences":"text messages"},
{"id":349,"vehicle_id":"ZVDA488593","customer_id":"CUST081","preferences":"app only"},
{"id":847,"vehicle_id":"JZXS044423","customer_id":"CUST093","preferences":"text messages"},
{"id":94,"vehicle_id":"NFLD996630","customer_id":"CUST071","preferences":"text messages"},
{"id":21,"vehicle_id":"HCLL587816","customer_id":"CUST241","preferences":"emails"},
{"id":843,"vehicle_id":"CDWN346029","customer_id":"CUST141","preferences":"text messages"},
{"id":314,"vehicle_id":"CFQW150419","customer_id":"CUST043","preferences":"app only"},
{"id":269,"vehicle_id":"CROI311313","customer_id":"CUST079","preferences":"app only"},
{"id":330,"vehicle_id":"LBKH502213","customer_id":"CUST124","preferences":"app only"},
{"id":623,"vehicle_id":"HACR870995","customer_id":"CUST027","preferences":"app only"},
{"id":160,"vehicle_id":"ZIYX573777","customer_id":"CUST104","preferences":"in-car notifications"},
{"id":790,"vehicle_id":"KZVX258844","customer_id":"CUST159","preferences":"in-car notifications"},
{"id":785,"vehicle_id":"CLNF030292","customer_id":"CUST011","preferences":"emails"},
{"id":811,"vehicle_id":"DUAA885128","customer_id":"CUST057","preferences":"app only"},
{"id":815,"vehicle_id":"XKOO997321","customer_id":"CUST224","preferences":"text messages"},
{"id":524,"vehicle_id":"JBZT009259","customer_id":"CUST103","preferences":"in-car notifications"},
{"id":874,"vehicle_id":"JSBP365638","customer_id":"CUST247","preferences":"emails"},
{"id":40,"vehicle_id":"EOEO599807","customer_id":"CUST013","preferences":"in-car notifications"},
{"id":363,"vehicle_id":"RRBR022953","customer_id":"CUST101","preferences":"in-car notifications"},
{"id":44,"vehicle_id":"KMVI133988","customer_id":"CUST044","preferences":"in-car notifications"},
{"id":458,"vehicle_id":"APUG266973","customer_id":"CUST141","preferences":"emails"},
{"id":55,"vehicle_id":"TXGX760486","customer_id":"CUST037","preferences":"emails"},
{"id":92,"vehicle_id":"HHYP600020","customer_id":"CUST141","preferences":"text messages"},
{"id":957,"vehicle_id":"XLCY293988","customer_id":"CUST211","preferences":"app only"},
{"id":619,"vehicle_id":"MRIE025545","customer_id":"CUST027","preferences":"text messages"},
{"id":121,"vehicle_id":"CYXV105973","customer_id":"CUST182","preferences":"text messages"},
{"id":552,"vehicle_id":"XXII400396","customer_id":"CUST073","preferences":"text messages"},
{"id":464,"vehicle_id":"FESA411559","customer_id":"CUST177","preferences":"app only"},
{"id":593,"vehicle_id":"EPFH977482","customer_id":"CUST220","preferences":"in-car notifications"},
{"id":3,"vehicle_id":"SDZK790346","customer_id":"CUST161","preferences":"emails"},
{"id":827,"vehicle_id":"OHOE771672","customer_id":"CUST244","preferences":"in-car notifications"},
{"id":565,"vehicle_id":"GDKI314260","customer_id":"CUST118","preferences":"text messages"},
{"id":147,"vehicle_id":"YZKE917995","customer_id":"CUST033","preferences":"in-car notifications"},
{"id":443,"vehicle_id":"FDJK082768","customer_id":"CUST228","preferences":"app only"},
{"id":787,"vehicle_id":"CLNF030292","customer_id":"CUST208","preferences":"text messages"},
{"id":822,"vehicle_id":"YLFP374329","customer_id":"CUST237","preferences":"text messages"},
{"id":213,"vehicle_id":"KMVI133988","customer_id":"CUST208","preferences":"in-car notifications"},
{"id":27,"vehicle_id":"MSUR247743","customer_id":"CUST103","preferences":"app only"},
{"id":683,"vehicle_id":"PMGI484502","customer_id":"CUST120","preferences":"app only"},
{"id":730,"vehicle_id":"QESH517178","customer_id":"CUST182","preferences":"in-car notifications"},
{"id":811,"vehicle_id":"CYXV105973","customer_id":"CUST045","preferences":"app only"},
{"id":242,"vehicle_id":"DUAA885128","customer_id":"CUST011","preferences":"in-car notifications"},
{"id":758,"vehicle_id":"TPJQ733193","customer_id":"CUST242","preferences":"emails"},
{"id":356,"vehicle_id":"DSGJ390230","customer_id":"CUST074","preferences":"in-car notifications"},
{"id":202,"vehicle_id":"XEDX549106","customer_id":"CUST081","preferences":"app only"},
{"id":388,"vehicle_id":"UCXU060664","customer_id":"CUST122","preferences":"app only"},
{"id":949,"vehicle_id":"ZDDD988541","customer_id":"CUST172","preferences":"text messages"},
{"id":923,"vehicle_id":"VZGJ374364","customer_id":"CUST163","preferences":"in-car notifications"},
{"id":105,"vehicle_id":"ZNRJ607068","customer_id":"CUST250","preferences":"in-car notifications"},
{"id":934,"vehicle_id":"WIOO550507","customer_id":"CUST168","preferences":"app only"},
{"id":750,"vehicle_id":"YLFP374329","customer_id":"CUST001","preferences":"app only"},
{"id":407,"vehicle_id":"EPYT375602","customer_id":"CUST057","preferences":"text messages"},
{"id":676,"vehicle_id":"PDGZ847950","customer_id":"CUST129","preferences":"emails"},
{"id":400,"vehicle_id":"DSGJ390230","customer_id":"CUST146","preferences":"in-car notifications"},
{"id":300,"vehicle_id":"MIQL332927","customer_id":"CUST108","preferences":"app only"},
{"id":534,"vehicle_id":"FLLZ547015","customer_id":"CUST205","preferences":"in-car notifications"},
{"id":841,"vehicle_id":"SSBD208821","customer_id":"CUST071","preferences":"app only"},
{"id":541,"vehicle_id":"TYBZ234758","customer_id":"CUST126","preferences":"app only"},
{"id":565,"vehicle_id":"ASFF993989","customer_id":"CUST116","preferences":"in-car notifications"},
{"id":709,"vehicle_id":"XLCY293988","customer_id":"CUST244","preferences":"emails"},
{"id":846,"vehicle_id":"XNWS644518","customer_id":"CUST015","preferences":"app only"},
{"id":545,"vehicle_id":"TXCU345907","customer_id":"CUST081","preferences":"in-car notifications"},
{"id":641,"vehicle_id":"LCOK363031","customer_id":"CUST205","preferences":"in-car notifications"},
{"id":38,"vehicle_id":"NGOC108892","customer_id":"CUST177","preferences":"in-car notifications"},
{"id":732,"vehicle_id":"YXKY858107","customer_id":"CUST201","preferences":"text messages"},
{"id":719,"vehicle_id":"BCAP852317","customer_id":"CUST183","preferences":"in-car notifications"},
{"id":231,"vehicle_id":"TFCF138822","customer_id":"CUST161","preferences":"emails"},
{"id":777,"vehicle_id":"FLLZ547015","customer_id":"CUST069","preferences":"in-car notifications"},
{"id":695,"vehicle_id":"JBZT009259","customer_id":"CUST040","preferences":"app only"},
{"id":393,"vehicle_id":"QQOG079381","customer_id":"CUST121","preferences":"app only"},
{"id":833,"vehicle_id":"JRPW790854","customer_id":"CUST086","preferences":"app only"},
{"id":835,"vehicle_id":"ETEF100549","customer_id":"CUST023","preferences":"app only"},
{"id":183,"vehicle_id":"WVDR491014","customer_id":"CUST224","preferences":"emails"},
{"id":381,"vehicle_id":"DXZE824494","customer_id":"CUST142","preferences":"app only"},
{"id":109,"vehicle_id":"JUWP345196","customer_id":"CUST219","preferences":"emails"},
{"id":476,"vehicle_id":"UCTZ150662","customer_id":"CUST185","preferences":"text messages"},
{"id":157,"vehicle_id":"UCXU060664","customer_id":"CUST214","preferences":"app only"},
{"id":238,"vehicle_id":"WVDR491014","customer_id":"CUST095","preferences":"in-car notifications"},
{"id":891,"vehicle_id":"HACR870995","customer_id":"CUST081","preferences":"in-car notifications"},
{"id":505,"vehicle_id":"BDFV160741","customer_id":"CUST199","preferences":"emails"},
{"id":369,"vehicle_id":"QMLP151034","customer_id":"CUST233","preferences":"text messages"},
{"id":629,"vehicle_id":"DYIP837413","customer_id":"CUST240","preferences":"in-car notifications"},
{"id":203,"vehicle_id":"PTAQ712838","customer_id":"CUST189","preferences":"in-car notifications"},
{"id":600,"vehicle_id":"PXZN835292","customer_id":"CUST040","preferences":"in-car notifications"},
{"id":428,"vehicle_id":"ZWRE680323","customer_id":"CUST233","preferences":"emails"},
{"id":720,"vehicle_id":"EPFH977482","customer_id":"CUST072","preferences":"in-car notifications"},
{"id":671,"vehicle_id":"THRT045555","customer_id":"CUST072","preferences":"in-car notifications"},
{"id":309,"vehicle_id":"WVDR491014","customer_id":"CUST020","preferences":"emails"},
{"id":545,"vehicle_id":"NGOC108892","customer_id":"CUST184","preferences":"in-car notifications"},
{"id":696,"vehicle_id":"JBZT009259","customer_id":"CUST218","preferences":"in-car notifications"},
{"id":237,"vehicle_id":"GCLA164919","customer_id":"CUST238","preferences":"app only"},
{"id":462,"vehicle_id":"EHZH837377","customer_id":"CUST248","preferences":"in-car notifications"},
{"id":470,"vehicle_id":"GOVH154845","customer_id":"CUST201","preferences":"text messages"},
{"id":502,"vehicle_id":"QOZC400673","customer_id":"CUST134","preferences":"app only"},
{"id":700,"vehicle_id":"QOZC400673","customer_id":"CUST209","preferences":"in-car notifications"},
{"id":800,"vehicle_id":"XKRG736560","customer_id":"CUST023","preferences":"app only"},
{"id":684,"vehicle_id":"PZOK789029","customer_id":"CUST133","preferences":"in-car notifications"},
{"id":12,"vehicle_id":"SBSJ664663","customer_id":"CUST203","preferences":"text messages"},
{"id":901,"vehicle_id":"KPEQ053612","customer_id":"CUST205","preferences":"app only"},
{"id":542,"vehicle_id":"HBOT258804","customer_id":"CUST095","preferences":"text messages"},
{"id":120,"vehicle_id":"FUXL536078","customer_id":"CUST109","preferences":"in-car notifications"},
{"id":104,"vehicle_id":"HHYD160556","customer_id":"CUST234","preferences":"in-car notifications"},
{"id":638,"vehicle_id":"BCAP852317","customer_id":"CUST079","preferences":"app only"},
{"id":548,"vehicle_id":"YIBM747023","customer_id":"CUST140","preferences":"text messages"},
{"id":639,"vehicle_id":"LBVR123700","customer_id":"CUST185","preferences":"app only"},
{"id":304,"vehicle_id":"OWZQ577893","customer_id":"CUST235","preferences":"text messages"},
{"id":408,"vehicle_id":"SSBD208821","customer_id":"CUST022","preferences":"in-car notifications"},
{"id":949,"vehicle_id":"WGIK872745","customer_id":"CUST193","preferences":"text messages"},
{"id":616,"vehicle_id":"JZXS044423","customer_id":"CUST046","preferences":"in-car notifications"},
{"id":333,"vehicle_id":"XNWS644518","customer_id":"CUST113","preferences":"emails"},
{"id":684,"vehicle_id":"CFQW150419","customer_id":"CUST119","preferences":"app only"},
{"id":352,"vehicle_id":"ROEE296826","customer_id":"CUST150","preferences":"emails"},
{"id":441,"vehicle_id":"WXIH293456","customer_id":"CUST077","preferences":"app only"},
{"id":947,"vehicle_id":"KTNP605673","customer_id":"CUST012","preferences":"text messages"},
{"id":531,"vehicle_id":"BCAP852317","customer_id":"CUST232","preferences":"emails"},
{"id":828,"vehicle_id":"EDBY480218","customer_id":"CUST120","preferences":"emails"},
{"id":968,"vehicle_id":"HSXN669924","customer_id":"CUST040","preferences":"text messages"},
{"id":244,"vehicle_id":"XKOO997321","customer_id":"CUST113","preferences":"app only"},
{"id":687,"vehicle_id":"GDKI314260","customer_id":"CUST167","preferences":"in-car notifications"},
{"id":81,"vehicle_id":"SSBD208821","customer_id":"CUST034","preferences":"text messages"},
{"id":941,"vehicle_id":"LRHW561263","customer_id":"CUST002","preferences":"app only"},
{"id":405,"vehicle_id":"BVOC660550","customer_id":"CUST250","preferences":"text messages"},
{"id":935,"vehicle_id":"FJWA438093","customer_id":"CUST132","preferences":"emails"},
{"id":850,"vehicle_id":"ALOG177182","customer_id":"CUST117","preferences":"app only"},
{"id":366,"vehicle_id":"CFQW150419","customer_id":"CUST220","preferences":"text messages"},
{"id":678,"vehicle_id":"OJHB317458","customer_id":"CUST007","preferences":"in-car notifications"},
{"id":575,"vehicle_id":"XYAH538063","customer_id":"CUST226","preferences":"text messages"},
{"id":763,"vehicle_id":"CYXV105973","customer_id":"CUST166","preferences":"emails"},
{"id":546,"vehicle_id":"MRIE025545","customer_id":"CUST010","preferences":"in-car notifications"},
{"id":161,"vehicle_id":"CFQW150419","customer_id":"CUST235","preferences":"text messages"},
{"id":260,"vehicle_id":"SXSM127789","customer_id":"CUST152","preferences":"in-car notifications"},
{"id":980,"vehicle_id":"HACR870995","customer_id":"CUST053","preferences":"text messages"},
{"id":511,"vehicle_id":"ROEE296826","customer_id":"CUST222","preferences":"text messages"},
{"id":561,"vehicle_id":"APUG266973","customer_id":"CUST167","preferences":"app only"},
{"id":120,"vehicle_id":"QMLP151034","customer_id":"CUST202","preferences":"text messages"},
{"id":117,"vehicle_id":"ERET366123","customer_id":"CUST080","preferences":"emails"},
{"id":432,"vehicle_id":"UKNN672196","customer_id":"CUST071","preferences":"emails"},
{"id":524,"vehicle_id":"PZJH049662","customer_id":"CUST107","preferences":"in-car notifications"},
{"id":323,"vehicle_id":"VWDL207914","customer_id":"CUST245","preferences":"app only"},
{"id":838,"vehicle_id":"YZKE917995","customer_id":"CUST178","preferences":"text messages"},
{"id":288,"vehicle_id":"MSUR247743","customer_id":"CUST120","preferences":"in-car notifications"},
{"id":884,"vehicle_id":"OOUD610694","customer_id":"CUST105","preferences":"text messages"},
{"id":666,"vehicle_id":"LWGP692170","customer_id":"CUST155","preferences":"emails"},
{"id":857,"vehicle_id":"ETDL451939","customer_id":"CUST054","preferences":"in-car notifications"},
{"id":877,"vehicle_id":"HCLL587816","customer_id":"CUST154","preferences":"text messages"},
{"id":661,"vehicle_id":"BCAP852317","customer_id":"CUST183","preferences":"emails"},
{"id":382,"vehicle_id":"UWXQ705037","customer_id":"CUST155","preferences":"text messages"},
{"id":616,"vehicle_id":"PGNK407817","customer_id":"CUST248","preferences":"text messages"},
{"id":807,"vehicle_id":"UWXQ705037","customer_id":"CUST172","preferences":"in-car notifications"},
{"id":571,"vehicle_id":"GGTJ657261","customer_id":"CUST211","preferences":"in-car notifications"},
{"id":530,"vehicle_id":"PZJH049662","customer_id":"CUST024","preferences":"text messages"},
{"id":601,"vehicle_id":"PZOK789029","customer_id":"CUST128","preferences":"in-car notifications"},
{"id":749,"vehicle_id":"UWXQ705037","customer_id":"CUST024","preferences":"in-car notifications"},
{"id":520,"vehicle_id":"YIBM747023","customer_id":"CUST026","preferences":"app only"},
{"id":848,"vehicle_id":"EFJZ128480","customer_id":"CUST134","preferences":"app only"},
{"id":895,"vehicle_id":"IBUY398326","customer_id":"CUST041","preferences":"emails"},
{"id":981,"vehicle_id":"UKNN672196","customer_id":"CUST154","preferences":"app only"},
{"id":342,"vehicle_id":"AZLS416090","customer_id":"CUST055","preferences":"emails"},
{"id":520,"vehicle_id":"HHYP600020","customer_id":"CUST219","preferences":"text messages"},
{"id":268,"vehicle_id":"BHBQ281156","customer_id":"CUST197","preferences":"emails"},
{"id":698,"vehicle_id":"JSHA235863","customer_id":"CUST016","preferences":"emails"},
{"id":282,"vehicle_id":"AOYP621552","customer_id":"CUST126","preferences":"app only"},
{"id":179,"vehicle_id":"GOVH154845","customer_id":"CUST005","preferences":"text messages"},
{"id":639,"vehicle_id":"AOYP621552","customer_id":"CUST075","preferences":"in-car notifications"},
{"id":135,"vehicle_id":"YXKY858107","customer_id":"CUST183","preferences":"in-car notifications"},
{"id":198,"vehicle_id":"GCLA164919","customer_id":"CUST059","preferences":"in-car notifications"},
{"id":585,"vehicle_id":"AOYP621552","customer_id":"CUST171","preferences":"in-car notifications"},
{"id":340,"vehicle_id":"HELD038816","customer_id":"CUST044","preferences":"text messages"},
{"id":145,"vehicle_id":"VLHO848194","customer_id":"CUST088","preferences":"text messages"},
{"id":150,"vehicle_id":"KTNP605673","customer_id":"CUST062","preferences":"emails"},
{"id":899,"vehicle_id":"ASFF993989","customer_id":"CUST123","preferences":"app only"},
{"id":186,"vehicle_id":"DUAA885128","customer_id":"CUST049","preferences":"text messages"},
{"id":296,"vehicle_id":"VYAN637046","customer_id":"CUST062","preferences":"emails"},
{"id":106,"vehicle_id":"KMVI133988","customer_id":"CUST068","preferences":"app only"},
{"id":927,"vehicle_id":"VMNV460284","customer_id":"CUST041","preferences":"app only"},
{"id":963,"vehicle_id":"FDJK082768","customer_id":"CUST187","preferences":"text messages"},
{"id":909,"vehicle_id":"QHUS363329","customer_id":"CUST154","preferences":"emails"},
{"id":833,"vehicle_id":"APUG266973","customer_id":"CUST189","preferences":"emails"},
{"id":190,"vehicle_id":"KCKJ279709","customer_id":"CUST217","preferences":"app only"},
{"id":887,"vehicle_id":"EDZU771030","customer_id":"CUST146","preferences":"emails"},
{"id":424,"vehicle_id":"FEXC073088","customer_id":"CUST217","preferences":"text messages"},
{"id":62,"vehicle_id":"OOMQ845854","customer_id":"CUST233","preferences":"app only"},
{"id":573,"vehicle_id":"AZLS416090","customer_id":"CUST013","preferences":"emails"},
{"id":57,"vehicle_id":"IXSZ251552","customer_id":"CUST155","preferences":"app only"},
{"id":297,"vehicle_id":"SBSJ664663","customer_id":"CUST116","preferences":"in-car notifications"},
{"id":338,"vehicle_id":"WVDR491014","customer_id":"CUST082","preferences":"in-car notifications"},
{"id":663,"vehicle_id":"EDBY480218","customer_id":"CUST230","preferences":"emails"},
{"id":219,"vehicle_id":"HCOJ997886","customer_id":"CUST018","preferences":"app only"},
{"id":754,"vehicle_id":"CVTT448741","customer_id":"CUST207","preferences":"emails"},
{"id":832,"vehicle_id":"YLFP374329","customer_id":"CUST235","preferences":"app only"},
{"id":138,"vehicle_id":"QQOG079381","customer_id":"CUST138","preferences":"text messages"},
{"id":250,"vehicle_id":"OKAT467163","customer_id":"CUST235","preferences":"emails"},
{"id":719,"vehicle_id":"ZNRJ607068","customer_id":"CUST219","preferences":"app only"},
{"id":816,"vehicle_id":"ZNRJ607068","customer_id":"CUST105","preferences":"app only"},
{"id":687,"vehicle_id":"GGTJ657261","customer_id":"CUST208","preferences":"app only"},
{"id":297,"vehicle_id":"CTYE479776","customer_id":"CUST213","preferences":"emails"},
{"id":28,"vehicle_id":"JFLC136406","customer_id":"CUST064","preferences":"text messages"},
{"id":392,"vehicle_id":"NEZB302986","customer_id":"CUST176","preferences":"text messages"},
{"id":360,"vehicle_id":"PMGI484502","customer_id":"CUST165","preferences":"emails"},
{"id":908,"vehicle_id":"SMLE253042","customer_id":"CUST086","preferences":"emails"},
{"id":364,"vehicle_id":"TXCU345907","customer_id":"CUST246","preferences":"emails"},
{"id":989,"vehicle_id":"WXIH293456","customer_id":"CUST037","preferences":"in-car notifications"},
{"id":179,"vehicle_id":"OKAT467163","customer_id":"CUST049","preferences":"text messages"},
{"id":997,"vehicle_id":"HBOT258804","customer_id":"CUST067","preferences":"text messages"},
{"id":47,"vehicle_id":"AZLS416090","customer_id":"CUST106","preferences":"emails"},
{"id":413,"vehicle_id":"RRBR022953","customer_id":"CUST073","preferences":"in-car notifications"},
{"id":366,"vehicle_id":"LDHS356371","customer_id":"CUST026","preferences":"text messages"},
{"id":98,"vehicle_id":"NEZB302986","customer_id":"CUST069","preferences":"text messages"},
{"id":278,"vehicle_id":"AICW211908","customer_id":"CUST224","preferences":"text messages"},
{"id":859,"vehicle_id":"ZNRJ607068","customer_id":"CUST137","preferences":"text messages"},
{"id":104,"vehicle_id":"HHYP600020","customer_id":"CUST040","preferences":"emails"},
{"id":725,"vehicle_id":"JSBP365638","customer_id":"CUST022","preferences":"emails"},
{"id":794,"vehicle_id":"YLFP374329","customer_id":"CUST054","preferences":"text messages"},
{"id":257,"vehicle_id":"ECVT765820","customer_id":"CUST173","preferences":"emails"},
{"id":495,"vehicle_id":"JZXS044423","customer_id":"CUST087","preferences":"text messages"},
{"id":968,"vehicle_id":"YVNV833336","customer_id":"CUST148","preferences":"app only"},
{"id":238,"vehicle_id":"BEPU247876","customer_id":"CUST129","preferences":"emails"},
{"id":456,"vehicle_id":"ZDDD988541","customer_id":"CUST067","preferences":"in-car notifications"},
{"id":212,"vehicle_id":"TYBZ234758","customer_id":"CUST056","preferences":"in-car notifications"},
{"id":964,"vehicle_id":"UZXG353501","customer_id":"CUST062","preferences":"app only"},
{"id":598,"vehicle_id":"ZTVZ873138","customer_id":"CUST169","preferences":"app only"},
{"id":195,"vehicle_id":"ZRFB074113","customer_id":"CUST009","preferences":"text messages"},
{"id":3,"vehicle_id":"JBZT009259","customer_id":"CUST171","preferences":"app only"},
{"id":7,"vehicle_id":"TXGX760486","customer_id":"CUST039","preferences":"text messages"},
{"id":942,"vehicle_id":"LULT224379","customer_id":"CUST005","preferences":"app only"},
{"id":658,"vehicle_id":"QQOG079381","customer_id":"CUST107","preferences":"text messages"},
{"id":804,"vehicle_id":"HHYP600020","customer_id":"CUST169","preferences":"emails"},
{"id":252,"vehicle_id":"ODUP877127","customer_id":"CUST154","preferences":"emails"},
{"id":413,"vehicle_id":"CTYE479776","customer_id":"CUST232","preferences":"app only"},
{"id":988,"vehicle_id":"YVNV833336","customer_id":"CUST238","preferences":"text messages"},
{"id":797,"vehicle_id":"PZJH049662","customer_id":"CUST030","preferences":"in-car notifications"},
{"id":903,"vehicle_id":"EQAF801426","customer_id":"CUST135","preferences":"in-car notifications"},
{"id":664,"vehicle_id":"UCTZ150662","customer_id":"CUST150","preferences":"emails"},
{"id":355,"vehicle_id":"OWZQ577893","customer_id":"CUST086","preferences":"emails"},
{"id":533,"vehicle_id":"ODUP877127","customer_id":"CUST065","preferences":"text messages"},
{"id":52,"vehicle_id":"RRBR022953","customer_id":"CUST114","preferences":"text messages"},
{"id":71,"vehicle_id":"TGJB344988","customer_id":"CUST057","preferences":"app only"},
{"id":199,"vehicle_id":"SZPY822491","customer_id":"CUST233","preferences":"in-car notifications"},
{"id":635,"vehicle_id":"TPJQ733193","customer_id":"CUST110","preferences":"text messages"},
{"id":379,"vehicle_id":"GMCV435736","customer_id":"CUST130","preferences":"text messages"},
{"id":963,"vehicle_id":"MIQL332927","customer_id":"CUST244","preferences":"text messages"},
{"id":18,"vehicle_id":"UCXU060664","customer_id":"CUST058","preferences":"text messages"},
{"id":747,"vehicle_id":"GOVH154845","customer_id":"CUST190","preferences":"emails"},
{"id":424,"vehicle_id":"PGNK407817","customer_id":"CUST213","preferences":"text messages"},
{"id":711,"vehicle_id":"VEQX686395","customer_id":"CUST129","preferences":"text messages"},
{"id":481,"vehicle_id":"QBCV427095","customer_id":"CUST113","preferences":"text messages"},
{"id":585,"vehicle_id":"RDBH533648","customer_id":"CUST020","preferences":"emails"},
{"id":214,"vehicle_id":"UQUJ370335","customer_id":"CUST027","preferences":"app only"},
{"id":977,"vehicle_id":"HBOT258804","customer_id":"CUST027","preferences":"in-car notifications"},
{"id":628,"vehicle_id":"ASFF993989","customer_id":"CUST103","preferences":"text messages"},
{"id":778,"vehicle_id":"OMMO459645","customer_id":"CUST117","preferences":"app only"},
{"id":392,"vehicle_id":"GDKI314260","customer_id":"CUST215","preferences":"in-car notifications"},
{"id":876,"vehicle_id":"ZRFB074113","customer_id":"CUST128","preferences":"app only"},
{"id":808,"vehicle_id":"WVDR491014","customer_id":"CUST169","preferences":"text messages"},
{"id":237,"vehicle_id":"OKAT467163","customer_id":"CUST026","preferences":"text messages"},
{"id":118,"vehicle_id":"UTCO400982","customer_id":"CUST200","preferences":"app only"},
{"id":2,"vehicle_id":"VYAN637046","customer_id":"CUST015","preferences":"text messages"},
{"id":44,"vehicle_id":"LMBH041258","customer_id":"CUST131","preferences":"app only"},
{"id":479,"vehicle_id":"OKAT467163","customer_id":"CUST078","preferences":"emails"},
{"id":404,"vehicle_id":"GJMB702300","customer_id":"CUST012","preferences":"emails"},
{"id":459,"vehicle_id":"ODUP877127","customer_id":"CUST149","preferences":"app only"},
{"id":311,"vehicle_id":"ETDL451939","customer_id":"CUST058","preferences":"text messages"},
{"id":781,"vehicle_id":"DSGJ390230","customer_id":"CUST243","preferences":"app only"},
{"id":857,"vehicle_id":"WWBQ858951","customer_id":"CUST102","preferences":"app only"},
{"id":373,"vehicle_id":"PTAQ712838","customer_id":"CUST113","preferences":"emails"},
{"id":754,"vehicle_id":"QOZC400673","customer_id":"CUST219","preferences":"text messages"},
{"id":307,"vehicle_id":"WIBI873437","customer_id":"CUST116","preferences":"text messages"},
{"id":57,"vehicle_id":"BVOC660550","customer_id":"CUST166","preferences":"in-car notifications"},
{"id":726,"vehicle_id":"MIQL332927","customer_id":"CUST238","preferences":"emails"},
{"id":138,"vehicle_id":"LWGP692170","customer_id":"CUST083","preferences":"text messages"},
{"id":941,"vehicle_id":"LHUL878583","customer_id":"CUST211","preferences":"in-car notifications"},
{"id":345,"vehicle_id":"BCAP852317","customer_id":"CUST085","preferences":"in-car notifications"},
{"id":763,"vehicle_id":"UQUJ370335","customer_id":"CUST030","preferences":"text messages"},
{"id":445,"vehicle_id":"JBZT009259","customer_id":"CUST047","preferences":"emails"},
{"id":491,"vehicle_id":"PMGI484502","customer_id":"CUST035","preferences":"text messages"},
{"id":708,"vehicle_id":"BEPU247876","customer_id":"CUST034","preferences":"emails"},
{"id":58,"vehicle_id":"QHUS363329","customer_id":"CUST003","preferences":"emails"},
{"id":770,"vehicle_id":"DUAA885128","customer_id":"CUST103","preferences":"text messages"},
{"id":317,"vehicle_id":"XNWS644518","customer_id":"CUST127","preferences":"text messages"},
{"id":855,"vehicle_id":"UJIU255305","customer_id":"CUST204","preferences":"text messages"},
{"id":338,"vehicle_id":"KTXZ723994","customer_id":"CUST175","preferences":"app only"},
{"id":324,"vehicle_id":"EDZU771030","customer_id":"CUST069","preferences":"text messages"},
{"id":963,"vehicle_id":"FFYD891939","customer_id":"CUST075","preferences":"app only"},
{"id":288,"vehicle_id":"XKRG736560","customer_id":"CUST088","preferences":"text messages"},
{"id":199,"vehicle_id":"LMBH041258","customer_id":"CUST065","preferences":"emails"},
{"id":290,"vehicle_id":"YVNV833336","customer_id":"CUST195","preferences":"app only"},
{"id":579,"vehicle_id":"ETEF100549","customer_id":"CUST014","preferences":"emails"},
{"id":828,"vehicle_id":"CROI311313","customer_id":"CUST218","preferences":"in-car notifications"},
{"id":338,"vehicle_id":"UQYP245444","customer_id":"CUST247","preferences":"text messages"},
{"id":777,"vehicle_id":"WIBI873437","customer_id":"CUST143","preferences":"in-car notifications"},
{"id":987,"vehicle_id":"ELOA954475","customer_id":"CUST165","preferences":"in-car notifications"},
{"id":123,"vehicle_id":"TXCU345907","customer_id":"CUST230","preferences":"text messages"},
{"id":151,"vehicle_id":"OHOE771672","customer_id":"CUST019","preferences":"text messages"},
{"id":188,"vehicle_id":"HBOT258804","customer_id":"CUST122","preferences":"in-car notifications"},
{"id":534,"vehicle_id":"TXGX760486","customer_id":"CUST018","preferences":"in-car notifications"},
{"id":36,"vehicle_id":"GGTJ657261","customer_id":"CUST240","preferences":"app only"},
{"id":729,"vehicle_id":"LMBH041258","customer_id":"CUST181","preferences":"in-car notifications"},
{"id":229,"vehicle_id":"HELD038816","customer_id":"CUST042","preferences":"in-car notifications"},
{"id":402,"vehicle_id":"ROEE296826","customer_id":"CUST157","preferences":"in-car notifications"},
{"id":75,"vehicle_id":"HCOJ997886","customer_id":"CUST058","preferences":"app only"},
{"id":864,"vehicle_id":"ELOA954475","customer_id":"CUST108","preferences":"in-car notifications"},
{"id":891,"vehicle_id":"ZWRE680323","customer_id":"CUST145","preferences":"text messages"},
{"id":418,"vehicle_id":"BBCV515903","customer_id":"CUST026","preferences":"emails"},
{"id":813,"vehicle_id":"FUXL536078","customer_id":"CUST197","preferences":"text messages"},
{"id":485,"vehicle_id":"PZOK789029","customer_id":"CUST005","preferences":"in-car notifications"},
{"id":429,"vehicle_id":"QOZC400673","customer_id":"CUST050","preferences":"app only"},
{"id":256,"vehicle_id":"MRIE025545","customer_id":"CUST184","preferences":"text messages"},
{"id":782,"vehicle_id":"UKNN672196","customer_id":"CUST201","preferences":"text messages"},
{"id":736,"vehicle_id":"FEXC073088","customer_id":"CUST041","preferences":"in-car notifications"},
{"id":829,"vehicle_id":"JSHA235863","customer_id":"CUST043","preferences":"text messages"},
{"id":491,"vehicle_id":"EIMR460228","customer_id":"CUST033","preferences":"in-car notifications"},
{"id":318,"vehicle_id":"CROI311313","customer_id":"CUST216","preferences":"in-car notifications"},
{"id":64,"vehicle_id":"DMVG107847","customer_id":"CUST219","preferences":"in-car notifications"},
{"id":243,"vehicle_id":"PXZN835292","customer_id":"CUST244","preferences":"text messages"},
{"id":721,"vehicle_id":"MRIE025545","customer_id":"CUST200","preferences":"app only"},
{"id":420,"vehicle_id":"VWDL207914","customer_id":"CUST205","preferences":"emails"},
{"id":196,"vehicle_id":"THRT045555","customer_id":"CUST230","preferences":"app only"},
{"id":866,"vehicle_id":"UNWY775603","customer_id":"CUST123","preferences":"app only"},
{"id":334,"vehicle_id":"VHOX913956","customer_id":"CUST114","preferences":"emails"},
{"id":672,"vehicle_id":"HACR870995","customer_id":"CUST011","preferences":"in-car notifications"},
{"id":214,"vehicle_id":"BLMC556384","customer_id":"CUST035","preferences":"text messages"},
{"id":712,"vehicle_id":"ZTVZ873138","customer_id":"CUST117","preferences":"in-car notifications"},
{"id":196,"vehicle_id":"LWGP692170","customer_id":"CUST118","preferences":"in-car notifications"},
{"id":949,"vehicle_id":"LULT224379","customer_id":"CUST105","preferences":"in-car notifications"},
{"id":453,"vehicle_id":"LUHY699719","customer_id":"CUST241","preferences":"emails"},
{"id":771,"vehicle_id":"YZKE917995","customer_id":"CUST183","preferences":"in-car notifications"},
{"id":506,"vehicle_id":"KTXZ723994","customer_id":"CUST247","preferences":"app only"},
{"id":310,"vehicle_id":"ETDL451939","customer_id":"CUST123","preferences":"emails"},
{"id":430,"vehicle_id":"AOYP621552","customer_id":"CUST205","preferences":"text messages"},
{"id":733,"vehicle_id":"FZBU355224","customer_id":"CUST111","preferences":"app only"},
{"id":81,"vehicle_id":"CLNF030292","customer_id":"CUST010","preferences":"app only"},
{"id":219,"vehicle_id":"FZBU355224","customer_id":"CUST110","preferences":"app only"},
{"id":886,"vehicle_id":"CVTT448741","customer_id":"CUST138","preferences":"emails"},
{"id":941,"vehicle_id":"LRHW561263","customer_id":"CUST093","preferences":"app only"},
{"id":127,"vehicle_id":"ODUP877127","customer_id":"CUST173","preferences":"text messages"},
{"id":168,"vehicle_id":"TXCU345907","customer_id":"CUST076","preferences":"app only"},
{"id":746,"vehicle_id":"EQAF801426","customer_id":"CUST106","preferences":"emails"},
{"id":698,"vehicle_id":"DSGJ390230","customer_id":"CUST199","preferences":"text messages"},
{"id":851,"vehicle_id":"BHBQ281156","customer_id":"CUST165","preferences":"in-car notifications"},
{"id":72,"vehicle_id":"SSBD208821","customer_id":"CUST085","preferences":"app only"},
{"id":330,"vehicle_id":"HHYP600020","customer_id":"CUST170","preferences":"app only"},
{"id":338,"vehicle_id":"SMLE253042","customer_id":"CUST063","preferences":"text messages"},
{"id":671,"vehicle_id":"XKRG736560","customer_id":"CUST239","preferences":"emails"},
{"id":742,"vehicle_id":"BHBQ281156","customer_id":"CUST011","preferences":"in-car notifications"},
{"id":691,"vehicle_id":"EIMR460228","customer_id":"CUST133","preferences":"app only"},
{"id":487,"vehicle_id":"XEDX549106","customer_id":"CUST243","preferences":"app only"},
{"id":745,"vehicle_id":"RRBR022953","customer_id":"CUST144","preferences":"emails"},
{"id":892,"vehicle_id":"HHYP600020","customer_id":"CUST029","preferences":"app only"},
{"id":446,"vehicle_id":"XYAH538063","customer_id":"CUST199","preferences":"in-car notifications"},
{"id":633,"vehicle_id":"YIBM747023","customer_id":"CUST049","preferences":"emails"},
{"id":116,"vehicle_id":"FFYD891939","customer_id":"CUST057","preferences":"app only"},
{"id":895,"vehicle_id":"UJIU255305","customer_id":"CUST094","preferences":"emails"},
{"id":399,"vehicle_id":"QOZC400673","customer_id":"CUST021","preferences":"app only"},
{"id":312,"vehicle_id":"PDGZ847950","customer_id":"CUST239","preferences":"in-car notifications"},
{"id":411,"vehicle_id":"SJYG082115","customer_id":"CUST151","preferences":"emails"},
{"id":576,"vehicle_id":"OHOE771672","customer_id":"CUST219","preferences":"app only"},
{"id":26,"vehicle_id":"UNWY775603","customer_id":"CUST162","preferences":"app only"},
{"id":600,"vehicle_id":"ZNRJ607068","customer_id":"CUST146","preferences":"text messages"},
{"id":935,"vehicle_id":"BHBQ281156","customer_id":"CUST082","preferences":"emails"},
{"id":75,"vehicle_id":"ZTVZ873138","customer_id":"CUST202","preferences":"app only"},
{"id":311,"vehicle_id":"BBCV515903","customer_id":"CUST159","preferences":"app only"},
{"id":645,"vehicle_id":"LBVR123700","customer_id":"CUST208","preferences":"in-car notifications"},
{"id":715,"vehicle_id":"XYAH538063","customer_id":"CUST250","preferences":"app only"},
{"id":543,"vehicle_id":"RDBH533648","customer_id":"CUST090","preferences":"emails"},
{"id":352,"vehicle_id":"UQUJ370335","customer_id":"CUST023","preferences":"app only"},
{"id":904,"vehicle_id":"XNWS644518","customer_id":"CUST043","preferences":"app only"},
{"id":546,"vehicle_id":"QMLP151034","customer_id":"CUST013","preferences":"app only"},
{"id":57,"vehicle_id":"PXZN835292","customer_id":"CUST193","preferences":"text messages"},
{"id":425,"vehicle_id":"DSGJ390230","customer_id":"CUST047","preferences":"app only"},
{"id":594,"vehicle_id":"TFCF138822","customer_id":"CUST059","preferences":"in-car notifications"},
{"id":649,"vehicle_id":"FXCQ127759","customer_id":"CUST202","preferences":"emails"},
{"id":266,"vehicle_id":"DSGJ390230","customer_id":"CUST173","preferences":"app only"},
{"id":686,"vehicle_id":"BDQR736146","customer_id":"CUST205","preferences":"emails"},
{"id":731,"vehicle_id":"OOMQ845854","customer_id":"CUST064","preferences":"text messages"},
{"id":260,"vehicle_id":"QHUS363329","customer_id":"CUST071","preferences":"in-car notifications"},
{"id":703,"vehicle_id":"XNWS644518","customer_id":"CUST108","preferences":"text messages"},
{"id":52,"vehicle_id":"GOVH154845","customer_id":"CUST133","preferences":"emails"},
{"id":381,"vehicle_id":"FXCQ127759","customer_id":"CUST230","preferences":"emails"},
{"id":426,"vehicle_id":"VLHO848194","customer_id":"CUST184","preferences":"text messages"},
{"id":987,"vehicle_id":"VEQX686395","customer_id":"CUST079","preferences":"in-car notifications"},
{"id":717,"vehicle_id":"YXKY858107","customer_id":"CUST162","preferences":"emails"},
{"id":235,"vehicle_id":"OMMO459645","customer_id":"CUST243","preferences":"emails"},
{"id":305,"vehicle_id":"JSHA235863","customer_id":"CUST027","preferences":"text messages"},
{"id":568,"vehicle_id":"XKOO997321","customer_id":"CUST231","preferences":"app only"},
{"id":11,"vehicle_id":"BEPU247876","customer_id":"CUST044","preferences":"app only"},
{"id":676,"vehicle_id":"UJIU255305","customer_id":"CUST047","preferences":"app only"},
{"id":676,"vehicle_id":"BCAP852317","customer_id":"CUST013","preferences":"in-car notifications"},
{"id":94,"vehicle_id":"PGNK407817","customer_id":"CUST157","preferences":"text messages"},
{"id":214,"vehicle_id":"UKNN672196","customer_id":"CUST105","preferences":"text messages"},
{"id":790,"vehicle_id":"HELD038816","customer_id":"CUST028","preferences":"in-car notifications"},
{"id":330,"vehicle_id":"NGOC108892","customer_id":"CUST059","preferences":"emails"},
{"id":160,"vehicle_id":"XKOO997321","customer_id":"CUST142","preferences":"app only"},
{"id":126,"vehicle_id":"JSBP365638","customer_id":"CUST227","preferences":"in-car notifications"},
{"id":425,"vehicle_id":"UKNN672196","customer_id":"CUST218","preferences":"in-car notifications"},
{"id":332,"vehicle_id":"KVXI357012","customer_id":"CUST181","preferences":"text messages"},
{"id":948,"vehicle_id":"EFJZ128480","customer_id":"CUST152","preferences":"emails"},
{"id":454,"vehicle_id":"OOUD610694","customer_id":"CUST219","preferences":"app only"},
{"id":90,"vehicle_id":"XYAH538063","customer_id":"CUST048","preferences":"text messages"},
{"id":577,"vehicle_id":"PTAQ712838","customer_id":"CUST177","preferences":"text messages"},
{"id":174,"vehicle_id":"VZGJ374364","customer_id":"CUST038","preferences":"emails"},
{"id":886,"vehicle_id":"TFCF138822","customer_id":"CUST190","preferences":"app only"},
{"id":940,"vehicle_id":"VDOM601790","customer_id":"CUST229","preferences":"app only"},
{"id":762,"vehicle_id":"OJHB317458","customer_id":"CUST141","preferences":"text messages"},
{"id":968,"vehicle_id":"PZJH049662","customer_id":"CUST200","preferences":"app only"},
{"id":250,"vehicle_id":"XLCY293988","customer_id":"CUST222","preferences":"app only"},
{"id":603,"vehicle_id":"QOSJ317970","customer_id":"CUST150","preferences":"app only"},
{"id":987,"vehicle_id":"PDGZ847950","customer_id":"CUST026","preferences":"in-car notifications"},
{"id":249,"vehicle_id":"DYIP837413","customer_id":"CUST071","preferences":"text messages"},
{"id":618,"vehicle_id":"FLLZ547015","customer_id":"CUST089","preferences":"text messages"},
{"id":546,"vehicle_id":"MIQL332927","customer_id":"CUST064","preferences":"app only"},
{"id":104,"vehicle_id":"FEXC073088","customer_id":"CUST062","preferences":"app only"},
{"id":69,"vehicle_id":"BCAP852317","customer_id":"CUST217","preferences":"emails"},
{"id":251,"vehicle_id":"EDZU771030","customer_id":"CUST109","preferences":"in-car notifications"},
{"id":992,"vehicle_id":"ALOG177182","customer_id":"CUST058","preferences":"emails"},
{"id":774,"vehicle_id":"ODUP877127","customer_id":"CUST243","preferences":"emails"},
{"id":135,"vehicle_id":"APUG266973","customer_id":"CUST180","preferences":"text messages"},
{"id":236,"vehicle_id":"GGTJ657261","customer_id":"CUST233","preferences":"app only"},
{"id":884,"vehicle_id":"OWZQ577893","customer_id":"CUST111","preferences":"app only"},
{"id":78,"vehicle_id":"QJQF202042","customer_id":"CUST088","preferences":"emails"},
{"id":384,"vehicle_id":"DYIP837413","customer_id":"CUST200","preferences":"text messages"},
{"id":161,"vehicle_id":"KTNP605673","customer_id":"CUST172","preferences":"text messages"},
{"id":476,"vehicle_id":"DIPL980496","customer_id":"CUST196","preferences":"app only"},
{"id":514,"vehicle_id":"QMLP151034","customer_id":"CUST089","preferences":"text messages"},
{"id":720,"vehicle_id":"ETDL451939","customer_id":"CUST211","preferences":"app only"},
{"id":941,"vehicle_id":"ODUP877127","customer_id":"CUST047","preferences":"emails"},
{"id":539,"vehicle_id":"UKNN672196","customer_id":"CUST230","preferences":"text messages"},
{"id":438,"vehicle_id":"HSXN669924","customer_id":"CUST042","preferences":"text messages"},
{"id":783,"vehicle_id":"EQAF801426","customer_id":"CUST066","preferences":"in-car notifications"},
{"id":692,"vehicle_id":"FZXX530813","customer_id":"CUST027","preferences":"text messages"},
{"id":25,"vehicle_id":"HHYP600020","customer_id":"CUST045","preferences":"in-car notifications"},
{"id":851,"vehicle_id":"LWGP692170","customer_id":"CUST065","preferences":"emails"},
{"id":546,"vehicle_id":"VHOX913956","customer_id":"CUST148","preferences":"app only"},
{"id":743,"vehicle_id":"ZRFB074113","customer_id":"CUST211","preferences":"text messages"},
{"id":966,"vehicle_id":"ELOA954475","customer_id":"CUST098","preferences":"in-car notifications"},
{"id":299,"vehicle_id":"ODUP877127","customer_id":"CUST156","preferences":"emails"},
{"id":7,"vehicle_id":"ZTVZ873138","customer_id":"CUST036","preferences":"emails"},
{"id":416,"vehicle_id":"BLMC556384","customer_id":"CUST081","preferences":"in-car notifications"},
{"id":623,"vehicle_id":"MRIE025545","customer_id":"CUST006","preferences":"app only"},
{"id":930,"vehicle_id":"ASFF993989","customer_id":"CUST093","preferences":"app only"},
{"id":415,"vehicle_id":"UCTZ150662","customer_id":"CUST234","preferences":"emails"},
{"id":322,"vehicle_id":"SJYG082115","customer_id":"CUST135","preferences":"text messages"},
{"id":480,"vehicle_id":"PTAQ712838","customer_id":"CUST188","preferences":"text messages"},
{"id":137,"vehicle_id":"WGIK872745","customer_id":"CUST035","preferences":"app only"},
{"id":712,"vehicle_id":"WIOO550507","customer_id":"CUST206","preferences":"in-car notifications"},
{"id":170,"vehicle_id":"XLCY293988","customer_id":"CUST232","preferences":"app only"},
{"id":70,"vehicle_id":"YLFP374329","customer_id":"CUST219","preferences":"emails"},
{"id":662,"vehicle_id":"PZOK789029","customer_id":"CUST234","preferences":"in-car notifications"},
{"id":43,"vehicle_id":"JZXS044423","customer_id":"CUST220","preferences":"text messages"},
{"id":942,"vehicle_id":"DIPL980496","customer_id":"CUST008","preferences":"emails"},
{"id":373,"vehicle_id":"WIBI873437","customer_id":"CUST046","preferences":"app only"},
{"id":116,"vehicle_id":"SMLE253042","customer_id":"CUST080","preferences":"app only"},
{"id":82,"vehicle_id":"VWDL207914","customer_id":"CUST118","preferences":"app only"},
{"id":563,"vehicle_id":"RRBR022953","customer_id":"CUST092","preferences":"text messages"},
{"id":279,"vehicle_id":"GJMB702300","customer_id":"CUST022","preferences":"in-car notifications"},
{"id":433,"vehicle_id":"DXZE824494","customer_id":"CUST045","preferences":"app only"},
{"id":75,"vehicle_id":"LBKH502213","customer_id":"CUST151","preferences":"app only"},
{"id":489,"vehicle_id":"UTCO400982","customer_id":"CUST010","preferences":"app only"},
{"id":52,"vehicle_id":"PMGI484502","customer_id":"CUST122","preferences":"emails"},
{"id":716,"vehicle_id":"VZGJ374364","customer_id":"CUST007","preferences":"app only"},
{"id":801,"vehicle_id":"LDHS356371","customer_id":"CUST080","preferences":"emails"},
{"id":823,"vehicle_id":"UCTZ150662","customer_id":"CUST060","preferences":"app only"},
{"id":282,"vehicle_id":"FFYD891939","customer_id":"CUST098","preferences":"text messages"},
{"id":600,"vehicle_id":"QOSJ317970","customer_id":"CUST040","preferences":"in-car notifications"},
{"id":876,"vehicle_id":"YXKY858107","customer_id":"CUST230","preferences":"app only"},
{"id":439,"vehicle_id":"FZBU355224","customer_id":"CUST178","preferences":"text messages"},
{"id":68,"vehicle_id":"XXII400396","customer_id":"CUST032","preferences":"app only"},
{"id":27,"vehicle_id":"NUBA595186","customer_id":"CUST040","preferences":"emails"},
{"id":363,"vehicle_id":"BVOC660550","customer_id":"CUST218","preferences":"app only"},
{"id":868,"vehicle_id":"JFLC136406","customer_id":"CUST062","preferences":"emails"},
{"id":684,"vehicle_id":"JUWP345196","customer_id":"CUST066","preferences":"in-car notifications"},
{"id":291,"vehicle_id":"LULT224379","customer_id":"CUST184","preferences":"app only"},
{"id":346,"vehicle_id":"LRHW561263","customer_id":"CUST030","preferences":"app only"},
{"id":94,"vehicle_id":"CTYE479776","customer_id":"CUST149","preferences":"text messages"},
{"id":681,"vehicle_id":"QBCV427095","customer_id":"CUST034","preferences":"text messages"},
{"id":666,"vehicle_id":"VWDL207914","customer_id":"CUST199","preferences":"emails"},
{"id":175,"vehicle_id":"LBVR123700","customer_id":"CUST115","preferences":"emails"},
{"id":369,"vehicle_id":"VMJW000156","customer_id":"CUST072","preferences":"text messages"},
{"id":19,"vehicle_id":"CYXV105973","customer_id":"CUST096","preferences":"in-car notifications"},
{"id":604,"vehicle_id":"JUWP345196","customer_id":"CUST243","preferences":"app only"},
{"id":415,"vehicle_id":"CLNF030292","customer_id":"CUST207","preferences":"app only"},
{"id":212,"vehicle_id":"HHYP600020","customer_id":"CUST045","preferences":"in-car notifications"},
{"id":192,"vehicle_id":"OHOE771672","customer_id":"CUST066","preferences":"emails"},
{"id":521,"vehicle_id":"KMVI133988","customer_id":"CUST007","preferences":"text messages"},
{"id":615,"vehicle_id":"JFLC136406","customer_id":"CUST197","preferences":"app only"},
{"id":803,"vehicle_id":"ODNX375023","customer_id":"CUST058","preferences":"text messages"},
{"id":96,"vehicle_id":"ZIYX573777","customer_id":"CUST172","preferences":"text messages"},
{"id":852,"vehicle_id":"QBCV427095","customer_id":"CUST231","preferences":"emails"},
{"id":384,"vehicle_id":"UWXQ705037","customer_id":"CUST115","preferences":"app only"},
{"id":39,"vehicle_id":"FESA411559","customer_id":"CUST055","preferences":"in-car notifications"},
{"id":553,"vehicle_id":"HHYD160556","customer_id":"CUST080","preferences":"in-car notifications"},
{"id":693,"vehicle_id":"OWZQ577893","customer_id":"CUST220","preferences":"app only"},
{"id":923,"vehicle_id":"UZXG353501","customer_id":"CUST003","preferences":"text messages"},
{"id":120,"vehicle_id":"ZIYX573777","customer_id":"CUST166","preferences":"emails"},
{"id":130,"vehicle_id":"UJIU255305","customer_id":"CUST015","preferences":"in-car notifications"},
{"id":734,"vehicle_id":"FDJK082768","customer_id":"CUST034","preferences":"in-car notifications"},
{"id":5,"vehicle_id":"CVTT448741","customer_id":"CUST205","preferences":"text messages"},
{"id":264,"vehicle_id":"EHZH837377","customer_id":"CUST218","preferences":"text messages"},
{"id":672,"vehicle_id":"BBCV515903","customer_id":"CUST048","preferences":"text messages"},
{"id":263,"vehicle_id":"ETDL451939","customer_id":"CUST189","preferences":"text messages"},
{"id":272,"vehicle_id":"HHYP600020","customer_id":"CUST244","preferences":"in-car notifications"},
{"id":364,"vehicle_id":"ROEE296826","customer_id":"CUST106","preferences":"in-car notifications"},
{"id":530,"vehicle_id":"CVTT448741","customer_id":"CUST217","preferences":"app only"},
{"id":904,"vehicle_id":"THRT045555","customer_id":"CUST221","preferences":"app only"},
{"id":90,"vehicle_id":"KMVI133988","customer_id":"CUST028","preferences":"in-car notifications"},
{"id":776,"vehicle_id":"DKDF220605","customer_id":"CUST062","preferences":"app only"},
{"id":989,"vehicle_id":"FZXX530813","customer_id":"CUST030","preferences":"text messages"},
{"id":292,"vehicle_id":"XEDX549106","customer_id":"CUST051","preferences":"emails"},
{"id":744,"vehicle_id":"GCLA164919","customer_id":"CUST152","preferences":"app only"},
{"id":299,"vehicle_id":"VZGJ374364","customer_id":"CUST250","preferences":"app only"},
{"id":995,"vehicle_id":"GGTJ657261","customer_id":"CUST050","preferences":"text messages"},
{"id":446,"vehicle_id":"TXGX760486","customer_id":"CUST190","preferences":"in-car notifications"},
{"id":639,"vehicle_id":"ROEE296826","customer_id":"CUST051","preferences":"text messages"},
{"id":39,"vehicle_id":"DSGJ390230","customer_id":"CUST075","preferences":"emails"},
{"id":952,"vehicle_id":"GPKV100314","customer_id":"CUST077","preferences":"app only"},
{"id":361,"vehicle_id":"PMGI484502","customer_id":"CUST091","preferences":"in-car notifications"},
{"id":224,"vehicle_id":"FXCQ127759","customer_id":"CUST040","preferences":"app only"},
{"id":515,"vehicle_id":"KTXZ723994","customer_id":"CUST227","preferences":"text messages"},
{"id":397,"vehicle_id":"THRT045555","customer_id":"CUST159","preferences":"app only"},
{"id":899,"vehicle_id":"ZTVZ873138","customer_id":"CUST133","preferences":"app only"},
{"id":967,"vehicle_id":"BDQR736146","customer_id":"CUST017","preferences":"app only"},
{"id":798,"vehicle_id":"UKNN672196","customer_id":"CUST245","preferences":"in-car notifications"},
{"id":23,"vehicle_id":"TPJQ733193","customer_id":"CUST164","preferences":"in-car notifications"},
{"id":205,"vehicle_id":"XXII400396","customer_id":"CUST117","preferences":"emails"},
{"id":634,"vehicle_id":"TXCU345907","customer_id":"CUST130","preferences":"app only"},
{"id":5,"vehicle_id":"LCOK363031","customer_id":"CUST179","preferences":"emails"},
{"id":981,"vehicle_id":"JFLC136406","customer_id":"CUST124","preferences":"in-car notifications"},
{"id":251,"vehicle_id":"IXSZ251552","customer_id":"CUST218","preferences":"emails"},
{"id":28,"vehicle_id":"ETDL451939","customer_id":"CUST037","preferences":"text messages"},
{"id":777,"vehicle_id":"LULT224379","customer_id":"CUST037","preferences":"emails"},
{"id":367,"vehicle_id":"APUG266973","customer_id":"CUST003","preferences":"app only"},
{"id":578,"vehicle_id":"LUHY699719","customer_id":"CUST073","preferences":"emails"},
{"id":68,"vehicle_id":"LBVR123700","customer_id":"CUST070","preferences":"in-car notifications"},
{"id":998,"vehicle_id":"ZVDA488593","customer_id":"CUST236","preferences":"app only"},
{"id":820,"vehicle_id":"LBKH502213","customer_id":"CUST062","preferences":"in-car notifications"},
{"id":74,"vehicle_id":"VZGJ374364","customer_id":"CUST051","preferences":"in-car notifications"},
{"id":257,"vehicle_id":"BDQR736146","customer_id":"CUST089","preferences":"in-car notifications"},
{"id":781,"vehicle_id":"ZVDA488593","customer_id":"CUST054","preferences":"emails"},
{"id":878,"vehicle_id":"DMVG107847","customer_id":"CUST205","preferences":"text messages"},
{"id":664,"vehicle_id":"QQOG079381","customer_id":"CUST202","preferences":"emails"},
{"id":581,"vehicle_id":"VWDL207914","customer_id":"CUST080","preferences":"emails"},
{"id":365,"vehicle_id":"PMGI484502","customer_id":"CUST102","preferences":"text messages"},
{"id":210,"vehicle_id":"HHYP600020","customer_id":"CUST112","preferences":"emails"},
{"id":814,"vehicle_id":"GJMB702300","customer_id":"CUST064","preferences":"in-car notifications"},
{"id":899,"vehicle_id":"FJWA438093","customer_id":"CUST210","preferences":"app only"},
{"id":350,"vehicle_id":"BLMC556384","customer_id":"CUST044","preferences":"text messages"},
{"id":805,"vehicle_id":"VYAN637046","customer_id":"CUST130","preferences":"text messages"},
{"id":157,"vehicle_id":"UQUJ370335","customer_id":"CUST189","preferences":"app only"},
{"id":459,"vehicle_id":"SBSJ664663","customer_id":"CUST211","preferences":"app only"},
{"id":961,"vehicle_id":"PXZN835292","customer_id":"CUST039","preferences":"app only"},
{"id":46,"vehicle_id":"OWZQ577893","customer_id":"CUST128","preferences":"app only"},
{"id":192,"vehicle_id":"ODUP877127","customer_id":"CUST071","preferences":"text messages"},
{"id":253,"vehicle_id":"LWGP692170","customer_id":"CUST193","preferences":"in-car notifications"},
{"id":29,"vehicle_id":"TXGX760486","customer_id":"CUST201","preferences":"text messages"},
{"id":21,"vehicle_id":"TPJQ733193","customer_id":"CUST120","preferences":"app only"},
{"id":306,"vehicle_id":"FZBU355224","customer_id":"CUST124","preferences":"emails"},
{"id":749,"vehicle_id":"UNDH967970","customer_id":"CUST207","preferences":"emails"},
{"id":540,"vehicle_id":"ZWRE680323","customer_id":"CUST113","preferences":"app only"},
{"id":349,"vehicle_id":"UNWY775603","customer_id":"CUST132","preferences":"in-car notifications"},
{"id":815,"vehicle_id":"JHUP210614","customer_id":"CUST214","preferences":"emails"},
{"id":362,"vehicle_id":"LMBH041258","customer_id":"CUST156","preferences":"in-car notifications"},
{"id":855,"vehicle_id":"FXCQ127759","customer_id":"CUST012","preferences":"text messages"},
{"id":205,"vehicle_id":"CYXV105973","customer_id":"CUST005","preferences":"text messages"},
{"id":497,"vehicle_id":"KZVX258844","customer_id":"CUST117","preferences":"app only"},
{"id":915,"vehicle_id":"ROEE296826","customer_id":"CUST222","preferences":"in-car notifications"},
{"id":832,"vehicle_id":"YLFP374329","customer_id":"CUST192","preferences":"emails"},
{"id":452,"vehicle_id":"ODNX375023","customer_id":"CUST015","preferences":"text messages"},
{"id":531,"vehicle_id":"BEPU247876","customer_id":"CUST167","preferences":"app only"},
{"id":936,"vehicle_id":"DXZE824494","customer_id":"CUST076","preferences":"emails"},
{"id":529,"vehicle_id":"YZKE917995","customer_id":"CUST044","preferences":"emails"},
{"id":981,"vehicle_id":"YZKE917995","customer_id":"CUST102","preferences":"emails"},
{"id":774,"vehicle_id":"KTXZ723994","customer_id":"CUST109","preferences":"app only"},
{"id":133,"vehicle_id":"KMVI133988","customer_id":"CUST170","preferences":"text messages"},
{"id":841,"vehicle_id":"ZRFB074113","customer_id":"CUST160","preferences":"app only"},
{"id":642,"vehicle_id":"TXGX760486","customer_id":"CUST053","preferences":"emails"},
{"id":225,"vehicle_id":"ODUP877127","customer_id":"CUST192","preferences":"emails"},
{"id":303,"vehicle_id":"DUAA885128","customer_id":"CUST141","preferences":"app only"},
{"id":60,"vehicle_id":"EDBY480218","customer_id":"CUST095","preferences":"app only"},
{"id":367,"vehicle_id":"JFLC136406","customer_id":"CUST003","preferences":"app only"},
{"id":930,"vehicle_id":"XKOO997321","customer_id":"CUST243","preferences":"app only"},
{"id":626,"vehicle_id":"VZGJ374364","customer_id":"CUST069","preferences":"app only"},
{"id":168,"vehicle_id":"MIQL332927","customer_id":"CUST017","preferences":"in-car notifications"},
{"id":738,"vehicle_id":"MSUR247743","customer_id":"CUST074","preferences":"in-car notifications"},
{"id":648,"vehicle_id":"JHUP210614","customer_id":"CUST032","preferences":"in-car notifications"},
{"id":51,"vehicle_id":"EQAF801426","customer_id":"CUST158","preferences":"in-car notifications"},
{"id":706,"vehicle_id":"ERET366123","customer_id":"CUST177","preferences":"emails"},
{"id":467,"vehicle_id":"FJWA438093","customer_id":"CUST111","preferences":"app only"},
{"id":686,"vehicle_id":"OMMO459645","customer_id":"CUST058","preferences":"emails"},
{"id":59,"vehicle_id":"YIBM747023","customer_id":"CUST217","preferences":"text messages"},
{"id":427,"vehicle_id":"TGJB344988","customer_id":"CUST166","preferences":"emails"},
{"id":294,"vehicle_id":"YVNV833336","customer_id":"CUST018","preferences":"text messages"},
{"id":637,"vehicle_id":"WVDR491014","customer_id":"CUST141","preferences":"text messages"},
{"id":987,"vehicle_id":"GMCV435736","customer_id":"CUST116","preferences":"app only"},
{"id":777,"vehicle_id":"QOZC400673","customer_id":"CUST136","preferences":"emails"},
{"id":877,"vehicle_id":"OWZQ577893","customer_id":"CUST058","preferences":"app only"},
{"id":19,"vehicle_id":"TXCU345907","customer_id":"CUST110","preferences":"in-car notifications"},
{"id":866,"vehicle_id":"NGOC108892","customer_id":"CUST070","preferences":"text messages"},
{"id":359,"vehicle_id":"EFJZ128480","customer_id":"CUST170","preferences":"emails"},
{"id":431,"vehicle_id":"TYBZ234758","customer_id":"CUST042","preferences":"text messages"},
{"id":553,"vehicle_id":"DYIP837413","customer_id":"CUST195","preferences":"in-car notifications"},
{"id":503,"vehicle_id":"YLFP374329","customer_id":"CUST084","preferences":"text messages"},
{"id":187,"vehicle_id":"VDOM601790","customer_id":"CUST200","preferences":"app only"},
{"id":87,"vehicle_id":"SBSJ664663","customer_id":"CUST133","preferences":"emails"},
{"id":465,"vehicle_id":"QHUS363329","customer_id":"CUST094","preferences":"app only"},
{"id":202,"vehicle_id":"LBVR123700","customer_id":"CUST157","preferences":"emails"},
{"id":263,"vehicle_id":"EDBY480218","customer_id":"CUST048","preferences":"emails"},
{"id":321,"vehicle_id":"WWBQ858951","customer_id":"CUST165","preferences":"text messages"},
{"id":689,"vehicle_id":"AZLS416090","customer_id":"CUST184","preferences":"emails"},
{"id":94,"vehicle_id":"KTXZ723994","customer_id":"CUST219","preferences":"text messages"},
{"id":756,"vehicle_id":"BLMC556384","customer_id":"CUST050","preferences":"text messages"},
{"id":62,"vehicle_id":"ANSL287702","customer_id":"CUST205","preferences":"emails"},
{"id":349,"vehicle_id":"ELOA954475","customer_id":"CUST054","preferences":"emails"},
{"id":137,"vehicle_id":"UJIU255305","customer_id":"CUST195","preferences":"text messages"},
{"id":44,"vehicle_id":"ORZF225010","customer_id":"CUST028","preferences":"text messages"},
{"id":657,"vehicle_id":"VZGJ374364","customer_id":"CUST010","preferences":"emails"},
{"id":124,"vehicle_id":"HCOJ997886","customer_id":"CUST189","preferences":"app only"},
{"id":547,"vehicle_id":"QBCV427095","customer_id":"CUST220","preferences":"text messages"},
{"id":457,"vehicle_id":"QOZC400673","customer_id":"CUST101","preferences":"text messages"},
{"id":136,"vehicle_id":"TGJB344988","customer_id":"CUST139","preferences":"app only"},
{"id":188,"vehicle_id":"XEDX549106","customer_id":"CUST226","preferences":"app only"},
{"id":877,"vehicle_id":"SMLE253042","customer_id":"CUST019","preferences":"emails"},
{"id":213,"vehicle_id":"GPKV100314","customer_id":"CUST185","preferences":"emails"},
{"id":924,"vehicle_id":"ETDL451939","customer_id":"CUST012","preferences":"emails"},
{"id":773,"vehicle_id":"ERET366123","customer_id":"CUST049","preferences":"text messages"},
{"id":273,"vehicle_id":"QJQF202042","customer_id":"CUST213","preferences":"in-car notifications"},
{"id":645,"vehicle_id":"ERET366123","customer_id":"CUST101","preferences":"app only"},
{"id":195,"vehicle_id":"FZXX530813","customer_id":"CUST052","preferences":"app only"},
{"id":735,"vehicle_id":"ZWRE680323","customer_id":"CUST093","preferences":"emails"},
{"id":603,"vehicle_id":"SBSJ664663","customer_id":"CUST111","preferences":"app only"},
{"id":151,"vehicle_id":"LRHW561263","customer_id":"CUST135","preferences":"in-car notifications"},
{"id":764,"vehicle_id":"TGJB344988","customer_id":"CUST066","preferences":"app only"},
{"id":666,"vehicle_id":"GJMB702300","customer_id":"CUST135","preferences":"app only"},
{"id":21,"vehicle_id":"JSBP365638","customer_id":"CUST196","preferences":"text messages"},
{"id":441,"vehicle_id":"ETDL451939","customer_id":"CUST053","preferences":"app only"},
{"id":470,"vehicle_id":"YXKY858107","customer_id":"CUST105","preferences":"emails"},
{"id":298,"vehicle_id":"EDZU771030","customer_id":"CUST073","preferences":"in-car notifications"},
{"id":725,"vehicle_id":"QOZC400673","customer_id":"CUST096","preferences":"app only"},
{"id":364,"vehicle_id":"BDFV160741","customer_id":"CUST168","preferences":"emails"},
{"id":469,"vehicle_id":"CYXV105973","customer_id":"CUST183","preferences":"text messages"},
{"id":730,"vehicle_id":"JSBP365638","customer_id":"CUST210","preferences":"text messages"},
{"id":395,"vehicle_id":"FEXC073088","customer_id":"CUST235","preferences":"in-car notifications"},
{"id":175,"vehicle_id":"LRHW561263","customer_id":"CUST048","preferences":"in-car notifications"},
{"id":552,"vehicle_id":"TXCU345907","customer_id":"CUST179","preferences":"text messages"},
{"id":204,"vehicle_id":"QQOG079381","customer_id":"CUST158","preferences":"text messages"},
{"id":746,"vehicle_id":"TXCU345907","customer_id":"CUST198","preferences":"app only"},
{"id":896,"vehicle_id":"CROI311313","customer_id":"CUST222","preferences":"emails"},
{"id":532,"vehicle_id":"XEDX549106","customer_id":"CUST081","preferences":"text messages"},
{"id":137,"vehicle_id":"GJMB702300","customer_id":"CUST192","preferences":"emails"},
{"id":880,"vehicle_id":"HCLL587816","customer_id":"CUST025","preferences":"emails"},
{"id":276,"vehicle_id":"CTYE479776","customer_id":"CUST048","preferences":"text messages"},
{"id":338,"vehicle_id":"ELOA954475","customer_id":"CUST237","preferences":"text messages"},
{"id":453,"vehicle_id":"XKOO997321","customer_id":"CUST055","preferences":"emails"},
{"id":431,"vehicle_id":"PXZN835292","customer_id":"CUST158","preferences":"in-car notifications"},
{"id":445,"vehicle_id":"KMVI133988","customer_id":"CUST110","preferences":"in-car notifications"},
{"id":257,"vehicle_id":"XNWS644518","customer_id":"CUST032","preferences":"emails"},
{"id":524,"vehicle_id":"MRIE025545","customer_id":"CUST059","preferences":"text messages"},
{"id":180,"vehicle_id":"EHZH837377","customer_id":"CUST231","preferences":"emails"},
{"id":548,"vehicle_id":"HSXN669924","customer_id":"CUST163","preferences":"text messages"},
{"id":805,"vehicle_id":"VDOM601790","customer_id":"CUST024","preferences":"app only"},
{"id":969,"vehicle_id":"WXIH293456","customer_id":"CUST159","preferences":"text messages"},
{"id":870,"vehicle_id":"BDFV160741","customer_id":"CUST166","preferences":"app only"},
{"id":624,"vehicle_id":"LHUL878583","customer_id":"CUST228","preferences":"text messages"},
{"id":39,"vehicle_id":"DMVG107847","customer_id":"CUST128","preferences":"app only"},
{"id":1,"vehicle_id":"ELOA954475","customer_id":"CUST021","preferences":"in-car notifications"},
{"id":329,"vehicle_id":"PTAQ712838","customer_id":"CUST143","preferences":"emails"},
{"id":176,"vehicle_id":"FDJK082768","customer_id":"CUST234","preferences":"emails"},
{"id":552,"vehicle_id":"KCKJ279709","customer_id":"CUST093","preferences":"text messages"},
{"id":402,"vehicle_id":"YUWN605312","customer_id":"CUST037","preferences":"text messages"},
{"id":501,"vehicle_id":"AZLS416090","customer_id":"CUST228","preferences":"text messages"},
{"id":925,"vehicle_id":"BDFV160741","customer_id":"CUST213","preferences":"in-car notifications"},
{"id":328,"vehicle_id":"EOEO599807","customer_id":"CUST197","preferences":"text messages"},
{"id":519,"vehicle_id":"LHUL878583","customer_id":"CUST062","preferences":"emails"},
{"id":210,"vehicle_id":"PGNK407817","customer_id":"CUST218","preferences":"emails"},
{"id":278,"vehicle_id":"BDQR736146","customer_id":"CUST138","preferences":"emails"},
{"id":481,"vehicle_id":"UWXQ705037","customer_id":"CUST164","preferences":"in-car notifications"},
{"id":984,"vehicle_id":"XEDX549106","customer_id":"CUST149","preferences":"text messages"},
{"id":649,"vehicle_id":"APUG266973","customer_id":"CUST031","preferences":"text messages"},
{"id":623,"vehicle_id":"RDBH533648","customer_id":"CUST154","preferences":"app only"},
{"id":825,"vehicle_id":"TXCU345907","customer_id":"CUST123","preferences":"emails"},
{"id":332,"vehicle_id":"SSBD208821","customer_id":"CUST098","preferences":"app only"},
{"id":504,"vehicle_id":"EOEO599807","customer_id":"CUST148","preferences":"app only"},
{"id":177,"vehicle_id":"CYXV105973","customer_id":"CUST167","preferences":"app only"},
{"id":641,"vehicle_id":"DMVG107847","customer_id":"CUST031","preferences":"text messages"},
{"id":109,"vehicle_id":"PXZN835292","customer_id":"CUST158","preferences":"app only"},
{"id":587,"vehicle_id":"VHOX913956","customer_id":"CUST050","preferences":"app only"},
{"id":924,"vehicle_id":"VZGJ374364","customer_id":"CUST035","preferences":"text messages"},
{"id":685,"vehicle_id":"AOYP621552","customer_id":"CUST250","preferences":"text messages"},
{"id":932,"vehicle_id":"WXIH293456","customer_id":"CUST109","preferences":"emails"},
{"id":993,"vehicle_id":"NFLD996630","customer_id":"CUST158","preferences":"app only"},
{"id":78,"vehicle_id":"LRHW561263","customer_id":"CUST166","preferences":"app only"},
{"id":119,"vehicle_id":"UWXQ705037","customer_id":"CUST082","preferences":"emails"},
{"id":785,"vehicle_id":"PGNK407817","customer_id":"CUST115","preferences":"emails"},
{"id":846,"vehicle_id":"SDZK790346","customer_id":"CUST056","preferences":"emails"},
{"id":435,"vehicle_id":"JRPW790854","customer_id":"CUST043","preferences":"app only"},
{"id":113,"vehicle_id":"QJQF202042","customer_id":"CUST142","preferences":"text messages"},
{"id":143,"vehicle_id":"EPYT375602","customer_id":"CUST006","preferences":"text messages"},
{"id":728,"vehicle_id":"HELD038816","customer_id":"CUST012","preferences":"text messages"},
{"id":58,"vehicle_id":"BVOC660550","customer_id":"CUST052","preferences":"in-car notifications"},
{"id":523,"vehicle_id":"CROI311313","customer_id":"CUST132","preferences":"emails"},
{"id":584,"vehicle_id":"ZTVZ873138","customer_id":"CUST076","preferences":"app only"},
{"id":996,"vehicle_id":"XXII400396","customer_id":"CUST136","preferences":"in-car notifications"},
{"id":81,"vehicle_id":"APUG266973","customer_id":"CUST146","preferences":"emails"},
{"id":499,"vehicle_id":"BBCV515903","customer_id":"CUST227","preferences":"text messages"},
{"id":358,"vehicle_id":"HHYP600020","customer_id":"CUST118","preferences":"emails"}]